user/login,created_at,PullRequestNumber
dmsnell,2016-12-21T19:39:36Z,10211
michelleweber,2017-01-12T19:12:05Z,10542
folletto,2017-01-16T21:48:56Z,10558
tyxla,2017-01-24T13:10:38Z,10663
folletto,2017-01-24T13:33:50Z,10663
rickybanister,2017-01-24T17:16:30Z,10680
samouri,2017-01-25T23:57:27Z,10764
dmsnell,2017-01-25T23:59:47Z,10764
dmsnell,2015-12-04T03:58:31Z,1083
oskosk,2017-05-29T15:10:40Z,10862
Copons,2017-01-25T18:49:29Z,10923
alisterscott,2017-01-30T22:58:44Z,11026
folletto,2017-01-30T11:03:04Z,11026
timmyc,2017-01-30T16:09:58Z,11035
nb,2015-12-08T17:47:02Z,1106
ockham,2017-02-22T21:13:32Z,11089
tyxla,2017-02-08T08:05:19Z,11225
bluefuton,2017-02-11T01:27:16Z,11282
youknowriad,2017-02-16T07:43:40Z,11335
ranh,2017-02-15T14:36:17Z,11362
tyxla,2017-03-07T08:17:35Z,11386
blowery,2017-02-16T18:04:52Z,11420
raoulwegat,2017-02-21T04:15:25Z,11420
rralian,2017-02-27T23:02:48Z,11457
drewblaisdell,2017-02-21T19:16:15Z,11503
timmyc,2017-03-03T15:51:46Z,11536
jasmussen,2017-03-03T12:38:23Z,11536
jordwest,2017-03-10T07:29:44Z,11604
dmsnell,2017-06-26T13:23:29Z,11625
dmsnell,2017-03-03T20:01:15Z,11684
gziolo,2017-03-07T07:43:41Z,11702
donnapep,2017-03-07T16:18:18Z,11780
MichaelArestad,2017-03-08T23:17:31Z,11918
ryelle,2017-06-05T23:58:41Z,12027
ockham,2018-01-19T14:08:13Z,12027
rickybanister,2017-04-19T15:04:47Z,12205
rickybanister,2017-05-24T18:19:24Z,12205
jasmussen,2017-03-17T14:45:48Z,12270
scruffian,2017-03-22T14:13:47Z,12345
yoavf,2017-03-23T17:58:24Z,12380
donnapep,2017-04-03T10:39:16Z,12380
samouri,2017-03-22T16:02:41Z,12400
folletto,2017-04-11T10:38:59Z,12468
rralian,2017-05-19T15:38:54Z,12471
allendav,2017-04-10T22:30:14Z,12921
tyxla,2017-04-13T08:49:15Z,13032
tyxla,2017-04-26T11:00:59Z,13099
gwwar,2017-04-14T22:04:01Z,13124
folletto,2017-05-12T15:29:02Z,13185
mknepprath,2017-05-18T05:50:24Z,13346
alisterscott,2017-04-28T05:24:01Z,13487
travisw,2017-04-28T15:50:21Z,13490
folletto,2017-06-19T09:11:31Z,13621
marcinbot,2017-05-05T10:12:45Z,13698
kellychoffman,2017-05-05T01:09:43Z,13698
rralian,2017-05-10T15:58:48Z,13842
dmsnell,2017-05-15T15:01:59Z,13858
dmsnell,2017-06-01T14:19:49Z,13858
kellychoffman,2017-05-10T15:16:47Z,13866
justinshreve,2017-05-16T14:31:49Z,13891
aduth,2015-12-09T14:16:40Z,1392
rralian,2015-12-09T14:38:11Z,1392
folletto,2017-05-11T11:20:07Z,13924
dbspringer,2017-06-07T17:06:56Z,14096
kellychoffman,2017-05-18T20:31:39Z,14186
rickybanister,2017-05-23T16:39:18Z,14254
gziolo,2017-05-29T07:27:53Z,14361
aduth,2017-06-06T19:20:03Z,14685
MichaelArestad,2015-12-11T18:08:39Z,1477
kellychoffman,2017-06-13T17:47:09Z,14829
rickybanister,2015-12-11T15:19:26Z,1488
DanReyLop,2017-06-09T14:14:46Z,14890
ryelle,2017-06-08T15:49:37Z,14890
ryelle,2017-06-08T16:52:32Z,14892
psealock,2017-06-11T20:16:58Z,14945
kwight,2017-06-13T18:27:05Z,14978
apeatling,2017-11-13T17:30:14Z,14996
gziolo,2017-07-05T09:59:51Z,15297
Tug,2017-07-05T10:06:04Z,15297
allendav,2017-06-21T00:03:21Z,15330
gwwar,2017-06-27T19:29:44Z,15382
ryelle,2017-06-26T14:50:54Z,15404
jorgefilipecosta,2017-07-03T23:01:20Z,15482
sirreal,2017-06-26T15:13:47Z,15487
folletto,2017-06-26T12:10:45Z,15487
justinshreve,2017-06-28T02:07:44Z,15583
folletto,2017-06-28T11:45:03Z,15603
rralian,2015-12-14T21:28:34Z,1561
dmsnell,2017-07-06T10:11:51Z,15636
lamosty,2017-06-30T18:17:30Z,15715
jhnstn,2017-06-30T17:56:23Z,15715
dllh,2017-07-12T14:56:05Z,16144
aduth,2015-12-21T17:00:53Z,1616
aduth,2017-08-01T17:00:55Z,16211
jorgefilipecosta,2017-07-31T22:22:46Z,16211
dmsnell,2017-07-18T14:49:32Z,16236
kwight,2017-07-28T16:15:53Z,16371
kwight,2017-07-28T17:16:07Z,16371
ebinnion,2015-12-15T23:10:22Z,1638
gwwar,2017-08-30T21:46:04Z,16451
hypest,2017-07-27T11:08:29Z,16478
nb,2017-08-08T15:45:10Z,16486
lamosty,2017-07-27T09:58:39Z,16488
jorgefilipecosta,2017-07-27T19:56:07Z,16490
iamtakashi,2017-07-27T12:41:41Z,16618
caydijay-zz,2017-08-03T19:55:33Z,16778
MichaelArestad,2017-08-03T20:01:35Z,16778
gwwar,2017-08-15T21:45:24Z,17150
aduth,2017-08-22T20:22:00Z,17196
kellychoffman,2017-08-23T19:27:37Z,17317
dmsnell,2017-11-13T04:37:22Z,17364
folletto,2017-08-21T18:21:21Z,17366
folletto,2017-08-24T13:11:32Z,17463
michelleweber,2017-11-08T20:52:13Z,17674
dmsnell,2017-09-03T21:46:27Z,17688
michelleweber,2017-09-06T19:30:37Z,17853
Copons,2017-09-06T17:19:40Z,17856
gwwar,2016-01-15T19:25:25Z,1793
jameskoster,2017-10-04T10:57:15Z,17985
ockham,2017-10-03T16:29:35Z,17990
gwwar,2017-09-14T22:58:42Z,18022
gziolo,2017-09-20T08:23:00Z,18048
MichaelArestad,2017-09-26T16:09:06Z,18056
michelleweber,2017-10-09T17:20:44Z,18088
jeremeylduvall,2017-10-12T15:49:38Z,18102
folletto,2017-09-21T12:22:10Z,18127
folletto,2017-09-21T09:26:42Z,18141
megsfulton,2017-09-21T21:42:25Z,18141
rickybanister,2015-12-18T17:11:46Z,1820
folletto,2017-09-26T12:32:21Z,18245
seear,2017-10-03T17:14:00Z,18402
kathrynwp,2017-10-03T18:21:49Z,18402
coderkevin,2017-10-10T21:49:30Z,18457
kellychoffman,2017-10-06T19:13:13Z,18514
akirk,2017-10-05T08:37:48Z,18515
rodrigoi,2017-10-06T19:15:43Z,18624
ryelle,2017-10-18T15:49:42Z,18729
jsnajdr,2017-10-23T21:12:08Z,18733
justinshreve,2017-10-12T20:31:50Z,18748
kellychoffman,2017-10-17T21:13:32Z,18914
stephanethomas,2017-10-17T14:17:51Z,18924
rcoll,2017-10-26T19:57:27Z,18962
eliorivero,2017-10-24T13:17:32Z,19015
samouri,2017-10-23T18:12:06Z,19064
enejb,2016-01-07T21:54:16Z,1909
ryelle,2017-10-27T21:19:21Z,19191
jameskoster,2017-10-31T12:20:35Z,19191
ryelle,2017-10-31T15:45:52Z,19191
samouri,2017-10-27T16:23:32Z,19201
jameskoster,2017-11-09T16:46:58Z,19243
ryelle,2017-11-09T15:50:53Z,19243
coderkevin,2017-11-01T03:24:01Z,19258
roccotripaldi,2017-11-15T19:35:19Z,19261
gwwar,2017-11-07T00:47:33Z,19294
bluefuton,2017-11-02T17:29:15Z,19400
timmyc,2017-11-08T18:26:59Z,19570
dmsnell,2018-01-14T00:56:50Z,19962
dmsnell,2016-01-05T08:28:06Z,2008
nylen,2017-11-25T12:05:35Z,20135
aduth,2016-01-05T13:26:34Z,2026
sirbrillig,2015-12-30T19:02:26Z,2040
samouri,2017-12-04T17:31:05Z,20459
fditrapani,2017-12-11T15:57:12Z,20493
lsinger,2017-12-14T16:39:00Z,20493
frontdevde,2017-12-08T17:58:29Z,20652
kellychoffman,2017-12-11T19:47:34Z,20665
MichaelArestad,2017-12-21T21:08:40Z,20666
samouri,2017-12-13T14:31:24Z,20724
dmsnell,2018-07-24T12:56:44Z,20780
lsinger,2017-12-18T11:15:54Z,20857
mattsherman,2017-12-20T18:33:04Z,20882
kellychoffman,2017-12-18T16:04:29Z,20907
hoverduck,2017-12-19T16:32:42Z,20948
jblz,2018-02-08T22:29:21Z,21002
tyxla,2018-01-03T13:40:36Z,21065
gwwar,2018-01-11T17:44:04Z,21155
eliorivero,2018-01-02T17:38:46Z,21160
MichaelArestad,2018-01-08T16:25:08Z,21293
samouri,2018-01-11T22:20:07Z,21349
aidvu,2018-01-10T21:21:21Z,21421
benhuberman,2018-01-19T08:09:45Z,21631
folletto,2018-01-19T15:23:35Z,21633
jancavan,2018-01-19T22:46:26Z,21708
jsnmoon,2018-02-01T23:07:12Z,21709
pablinos,2018-01-22T07:55:36Z,21716
ryelle,2018-02-12T17:02:24Z,21753
ebinnion,2016-01-07T19:51:41Z,2183
timmyc,2018-03-15T16:44:07Z,21865
marcinbot,2018-02-01T11:21:30Z,21875
DanReyLop,2018-02-06T12:59:25Z,21875
pablinos,2018-01-31T12:41:35Z,21997
mkaz,2018-02-01T00:34:48Z,22029
astralbodies,2018-02-08T18:30:17Z,22236
rickybanister,2018-02-09T18:56:57Z,22288
matthusby,2018-02-14T01:14:25Z,22376
markryall,2018-02-16T05:10:36Z,22401
dmsnell,2018-02-14T22:00:12Z,22428
dechov,2018-02-16T22:38:07Z,22499
jeffstieler,2018-02-16T23:06:24Z,22499
simison,2018-02-19T21:12:33Z,22573
klimeryk,2016-01-22T05:33:35Z,2262
BrookeDot,2016-01-21T22:14:21Z,2262
dmsnell,2018-05-16T15:37:49Z,22655
adamziel,2018-02-26T15:49:27Z,22755
sirreal,2018-03-12T16:47:31Z,22881
jsnmoon,2018-03-16T19:51:05Z,22965
andfinally,2018-03-17T17:15:36Z,22967
andfinally,2018-03-17T17:21:15Z,22972
alisterscott,2018-03-08T23:27:05Z,22973
mattwondra,2018-03-06T01:38:26Z,22988
rachelmcr,2018-03-09T16:33:20Z,22993
Copons,2018-04-26T09:59:37Z,22995
designsimply,2018-03-08T00:09:55Z,23028
aduth,2016-01-13T15:34:14Z,2308
benhuberman,2018-03-08T18:57:07Z,23117
sirreal,2018-03-12T15:44:29Z,23179
Tug,2018-04-06T16:58:44Z,23483
Tug,2018-04-05T08:31:11Z,23483
rralian,2016-01-19T17:31:41Z,2350
dmsnell,2018-03-27T13:25:11Z,23672
sirreal,2018-03-27T14:00:14Z,23672
gwwar,2018-03-28T21:09:26Z,23744
kwight,2018-04-17T20:11:31Z,23811
kwight,2018-04-17T18:22:03Z,23829
aidvu,2018-04-05T10:06:04Z,23873
benhuberman,2018-04-04T19:47:36Z,23912
AnnaMag,2018-04-12T22:27:42Z,23997
ryelle,2018-04-12T14:17:58Z,24024
gwwar,2018-04-10T23:47:18Z,24039
ockham,2018-04-11T17:06:29Z,24044
scruffian,2018-04-13T15:13:09Z,24131
andfinally,2018-04-14T15:39:47Z,24131
ramonjd,2018-04-17T01:27:54Z,24206
joanrho,2018-04-16T17:15:35Z,24215
andfinally,2018-04-18T07:03:15Z,24227
andfinally,2018-07-24T09:36:15Z,24230
ockham,2018-04-19T11:48:52Z,24312
sirreal,2018-05-07T16:02:32Z,24335
spen,2018-04-25T21:29:53Z,24468
folletto,2018-04-30T13:22:49Z,24485
gwwar,2018-05-10T23:23:30Z,24485
spen,2018-04-27T10:51:43Z,24490
folletto,2018-04-30T13:22:00Z,24564
gwwar,2018-05-02T17:27:22Z,24627
dmsnell,2018-06-13T12:22:41Z,24675
gwwar,2018-05-11T22:44:17Z,24818
jsnajdr,2018-05-18T14:09:54Z,24905
dmsnell,2018-05-28T10:05:56Z,25103
rcoll,2018-06-08T19:23:27Z,25333
jaswrks,2018-06-18T21:01:30Z,25433
dmsnell,2018-06-20T07:14:54Z,25594
blowery,2018-06-19T15:08:54Z,25595
DanReyLop,2018-07-28T15:17:13Z,25723
jakejones1984,2018-06-30T22:27:19Z,25762
shaunandrews,2018-07-18T19:32:02Z,25767
adamziel,2018-07-18T15:21:11Z,26127
fditrapani,2018-07-25T18:52:22Z,26201
jsnajdr,2018-07-20T12:23:58Z,26212
sgomes,2018-08-05T09:01:53Z,26243
tyxla,2018-09-26T14:25:10Z,26530
mapk,2018-09-19T17:22:17Z,26530
dmsnell,2018-09-04T11:41:44Z,26760
jsnajdr,2018-09-04T14:48:01Z,26760
kellychoffman,2018-09-04T20:30:09Z,26774
blowery,2016-01-22T16:06:53Z,2689
DavidRothstein,2018-08-27T02:56:38Z,26896
tyxla,2018-08-31T11:08:37Z,26937
michelleweber,2018-09-11T10:19:40Z,27109
andfinally,2018-09-20T16:09:29Z,27270
Copons,2018-09-19T14:23:51Z,27297
kwight,2018-09-19T17:36:28Z,27297
alisterscott,2018-09-26T02:10:43Z,27412
enejb,2018-10-26T16:44:48Z,27836
jeffersonrabb,2018-10-26T16:54:21Z,27836
kjellr,2018-10-30T13:55:20Z,27836
sgomes,2018-11-16T13:23:14Z,27926
gwwar,2018-10-19T00:01:19Z,27945
gwwar,2018-10-30T18:48:24Z,28127
fabianapsimoes,2016-01-28T11:49:42Z,2816
fditrapani,2018-11-07T13:19:27Z,28189
rralian,2016-02-10T07:09:50Z,2843
matthusby,2018-11-16T20:00:17Z,28512
jsnajdr,2018-12-04T13:11:42Z,28607
spen,2018-11-27T13:53:17Z,28637
michaeldcain,2018-11-20T15:49:25Z,28672
jeffersonrabb,2018-11-21T12:21:54Z,28751
joanrho,2018-12-18T01:50:23Z,28911
umurkontaci,2016-01-29T18:24:26Z,2916
shaunandrews,2018-12-07T18:27:48Z,29201
kjellr,2016-02-01T18:01:01Z,2942
MichaelArestad,2018-12-17T22:11:40Z,29475
tyxla,2018-12-18T11:11:00Z,29475
torres126,2018-12-23T17:34:43Z,29507
melchoyce,2016-02-04T17:29:55Z,3016
mattmiklic,2016-02-04T17:35:05Z,3016
rralian,2016-02-03T19:54:08Z,3039
dllh,2016-02-05T04:55:04Z,3071
ebinnion,2016-02-08T20:49:28Z,3098
dllh,2016-02-09T18:10:39Z,3151
rickybanister,2016-02-25T20:09:47Z,3572
jancavan,2016-03-14T04:09:54Z,3862
bluefuton,2016-03-14T05:14:12Z,3862
TooTallNate,2016-03-17T21:37:06Z,4015
gziolo,2016-03-15T14:03:31Z,4038
blowery,2016-03-17T00:09:24Z,4101
ockham,2016-03-17T23:12:59Z,4137
rodrigoi,2016-03-21T15:20:57Z,4175
alisterscott,2016-03-21T01:17:04Z,4177
rralian,2016-03-23T21:02:08Z,4199
blowery,2016-03-22T19:16:57Z,4210
apeatling,2016-06-03T16:42:17Z,4456
rralian,2016-04-07T13:36:26Z,4472
enejb,2016-04-11T17:44:06Z,4581
dmsnell,2016-04-18T13:43:13Z,4650
aduth,2016-04-13T14:44:06Z,4684
folletto,2016-04-13T09:11:34Z,4695
bluefuton,2016-04-18T13:58:50Z,4817
gziolo,2016-04-20T07:39:10Z,4849
aduth,2016-04-29T12:40:44Z,5032
retrofox,2016-04-27T11:56:56Z,5034
rralian,2016-05-03T14:11:25Z,5167
retrofox,2016-05-03T14:50:27Z,5167
michaeldcain,2016-05-04T16:31:34Z,5205
ockham,2016-05-10T11:37:09Z,5259
mcsf,2016-05-16T21:46:46Z,5346
aduth,2015-12-07T21:41:46Z,550
aduth,2016-05-24T12:49:23Z,5500
folletto,2016-05-24T09:18:38Z,5527
lsinger,2016-05-25T10:44:08Z,5551
rralian,2016-05-27T13:49:20Z,5575
retrofox,2016-06-02T10:22:29Z,5575
rralian,2016-05-27T20:01:15Z,5628
roccotripaldi,2016-06-01T12:39:40Z,5712
rralian,2016-06-01T20:11:14Z,5731
lsinger,2016-10-12T14:44:03Z,5808
marekhrabe,2016-10-12T11:48:10Z,5808
jordwest,2016-06-10T06:41:45Z,5928
DanReyLop,2016-10-23T12:48:09Z,5987
breezyskies,2016-06-15T13:12:13Z,6029
fabianapsimoes,2015-11-24T16:49:27Z,607
umurkontaci,2016-07-12T17:35:36Z,6117
aduth,2016-06-27T21:33:42Z,6262
dmsnell,2016-06-27T23:27:06Z,6262
aduth,2016-06-24T19:08:30Z,6294
seear,2016-06-28T15:28:16Z,6308
aduth,2016-07-08T02:24:07Z,6321
rralian,2016-07-14T14:43:14Z,6781
dllh,2016-08-01T21:08:20Z,7150
folletto,2016-08-01T14:25:51Z,7171
folletto,2016-08-01T17:50:47Z,7201
ryelle,2016-08-11T19:59:17Z,7250
umurkontaci,2016-08-05T16:12:59Z,7303
folletto,2016-10-10T11:02:18Z,7362
lancewillett,2016-10-10T18:33:32Z,7367
bluefuton,2016-08-16T15:47:53Z,7369
shaunandrews,2016-08-25T20:27:59Z,7386
gwwar,2016-08-17T16:16:13Z,7515
v18,2016-09-01T04:09:33Z,7581
lamosty,2016-09-02T19:10:13Z,7830
ebinnion,2015-12-03T03:24:42Z,808
blowery,2016-10-26T17:47:54Z,8161
hoverduck,2016-09-26T14:48:10Z,8193
retrofox,2016-09-26T16:15:50Z,8193
KokkieH,2016-09-26T19:54:49Z,8199
lamosty,2016-09-28T13:45:42Z,8279
dmsnell,2016-11-05T19:43:25Z,8462
jasmussen,2016-10-20T15:48:53Z,8578
klimeryk,2016-10-31T14:30:18Z,8667
scruffian,2016-10-17T13:48:27Z,8678
enejb,2015-11-26T21:42:17Z,871
ockham,2016-10-19T14:02:25Z,8762
budzanowski,2016-11-07T10:40:53Z,8785
folletto,2016-10-27T11:33:53Z,8900
folletto,2016-10-27T11:33:25Z,8901
retrofox,2016-10-25T17:54:59Z,8945
timmyc,2015-12-08T17:39:50Z,896
omarjackman,2016-11-09T17:55:24Z,9111
dllh,2016-11-11T12:39:38Z,9261
dmsnell,2017-01-17T08:36:07Z,9266
bluefuton,2016-11-15T23:35:09Z,9395
rickybanister,2017-01-14T00:04:53Z,9443
blowery,2016-11-30T19:04:33Z,9728
breezyskies,2016-12-07T13:20:46Z,9863
