16144,False
15715,False
15636,False
15603,False
15583,False
15487,False
15482,False
15404,False
15382,False
15330,False
15297,False
14978,False
14945,False
14892,False
14890,False
14829,False
28127,False
14685,False
14254,False
14186,False
14096,False
13924,True
13891,False
13866,False
13842,False
13698,False
13621,False
13487,False
13490,False
13185,False
13124,False
13032,False
12921,False
12471,False
12400,False
12380,False
12345,False
12270,False
12205,False
11780,False
27945,False
27926,False
11702,False
11684,False
11536,False
11503,False
11457,True
11420,False
11386,False
11362,False
11282,True
11225,False
11089,False
11035,False
11026,False
10923,True
10764,False
10680,False
10663,False
10558,True
9863,False
9443,False
9395,False
9261,False
9111,False
8945,True
8900,False
8901,False
8785,False
8762,False
8678,False
8667,False
8578,False
8462,False
8279,False
8199,False
8161,False
7386,False
7369,False
7362,False
7250,False
7201,False
7171,False
7150,False
6781,False
6321,False
6308,False
6294,False
6117,False
6029,False
27412,False
27297,False
5987,False
5928,False
5808,False
5731,False
5712,False
5628,False
5551,False
5527,False
5500,False
5346,False
5259,False
5205,False
5167,False
4849,False
4817,False
4695,False
4684,False
4650,True
4581,False
4472,False
4210,False
4199,True
4177,False
4175,False
4137,False
4101,False
4038,False
4015,False
3862,True
3572,False
3151,False
3098,False
3071,False
3039,False
3016,False
27109,False
2942,False
2843,False
2816,False
2689,False
2350,False
2308,False
2262,False
2183,False
2040,False
2026,False
1909,False
1820,False
1638,False
1561,False
1488,False
1477,True
1392,False
1106,False
29507,False
29475,False
1083,False
896,False
871,True
808,False
607,False
550,False
26896,False
26760,False
26530,False
26243,False
26212,False
26201,False
26127,False
25767,True
25723,False
25595,False
25594,False
25433,False
25333,False
25103,False
24905,False
24675,False
24627,True
24564,True
24485,False
29201,False
24468,False
24335,False
24312,False
24227,False
24230,False
24215,False
24206,False
24131,False
24044,False
24039,False
24024,False
23997,False
23912,False
23873,False
23744,False
23672,False
23483,False
23117,False
23028,False
22995,False
22993,False
22988,False
22973,False
22972,False
22967,False
22965,False
22881,False
22755,False
22573,False
22499,False
22401,False
22376,True
22288,False
22236,False
21997,False
21875,False
21865,False
21753,True
21709,False
21708,False
21633,False
21631,False
21421,False
21349,False
21293,False
21160,False
21155,False
21065,False
20948,False
20907,False
20882,False
20857,False
20724,False
20665,False
20652,False
20666,False
20493,False
20459,False
28751,False
19570,False
19400,False
19294,False
19261,False
19258,False
19243,False
19201,False
19064,False
19015,False
28672,False
28607,False
18962,False
18924,False
18748,False
18733,False
18729,False
18624,False
18515,True
18457,False
18402,False
18245,False
18141,True
18102,False
18088,False
18022,True
17990,False
17985,False
17856,True
17853,False
17688,False
17674,True
28512,False
17463,False
17364,False
17317,False
17196,False
17150,True
16618,False
16486,False
16478,False
16236,True
16211,False

,Total: ,275
,Fulfilled by original author: ,23,0.08
,Not fulfilled by original author: ,252,0.92
