11293,FALSE,,
11291,FALSE,,
11222,FALSE,,
10413,FALSE,,
10414,FALSE,,
10398,FALSE,,
1362,FALSE,,
1236,FALSE,,
1218,FALSE,,
1214,FALSE,,
1066,FALSE,,
851,FALSE,,
582,TRUE,,
560,FALSE,,
529,FALSE,,
527,FALSE,,
10318,FALSE,,
10315,FALSE,,
10305,FALSE,,
10268,FALSE,,
10231,FALSE,,
409,FALSE,,
239,FALSE,,
75,FALSE,,
33,FALSE,,
31,FALSE,,
10220,FALSE,,
10090,FALSE,,
10082,FALSE,,
10079,FALSE,,
10051,FALSE,,
10042,FALSE,,
10009,FALSE,,
9969,FALSE,,
9960,FALSE,,
9952,FALSE,,
9925,FALSE,,
9916,FALSE,,
9908,TRUE,,
9857,FALSE,,
9846,FALSE,,
9833,FALSE,,
9806,FALSE,,
9777,FALSE,,
9775,FALSE,,
9734,FALSE,,
9707,FALSE,,
9703,FALSE,,
9692,FALSE,,
9687,FALSE,,
9660,FALSE,,
9643,FALSE,,
9636,FALSE,,
9617,FALSE,,
9606,FALSE,,
9548,FALSE,,
9471,FALSE,,
9434,FALSE,,
11214,FALSE,,
11164,FALSE,,
11145,FALSE,,
11144,FALSE,,
11124,FALSE,,
9338,FALSE,,
9190,FALSE,,
9097,FALSE,,
9063,FALSE,,
9034,TRUE,,
9035,FALSE,,
9027,FALSE,,
9010,FALSE,,
9009,FALSE,,
8959,FALSE,,
8910,FALSE,,
8864,FALSE,,
8862,FALSE,,
8814,FALSE,,
8813,FALSE,,
8808,FALSE,,
8799,FALSE,,
8786,FALSE,,
8750,FALSE,,
8725,FALSE,,
8569,FALSE,,
8568,TRUE,,
8554,FALSE,,
8548,TRUE,,
8547,FALSE,,
8535,FALSE,,
8523,FALSE,,
8520,FALSE,,
8517,FALSE,,
8452,FALSE,,
8450,FALSE,,
8449,FALSE,,
8428,FALSE,,
11048,FALSE,,
11033,FALSE,,
8416,FALSE,,
8332,FALSE,,
8274,FALSE,,
8270,FALSE,,
8172,TRUE,,
8153,FALSE,,
8091,FALSE,,
8086,FALSE,,
8047,FALSE,,
8042,FALSE,,
8008,FALSE,,
7960,FALSE,,
7924,FALSE,,
7921,FALSE,,
7891,FALSE,,
7873,FALSE,,
7858,FALSE,,
7847,FALSE,,
7829,FALSE,,
7816,FALSE,,
7811,FALSE,,
7736,FALSE,,
7588,FALSE,,
7580,FALSE,,
7532,FALSE,,
7494,FALSE,,
7484,FALSE,,
7471,FALSE,,
7465,TRUE,,
10974,FALSE,,
7383,FALSE,,
7348,FALSE,,
7331,FALSE,,
7289,FALSE,,
7281,FALSE,,
7278,FALSE,,
7253,FALSE,,
7215,FALSE,,
7206,FALSE,,
7081,FALSE,,
7063,FALSE,,
7056,FALSE,,
6994,FALSE,,
6984,FALSE,,
6982,FALSE,,
6915,FALSE,,
6883,TRUE,,
6834,FALSE,,
6827,FALSE,,
6804,FALSE,,
6794,FALSE,,
6748,FALSE,,
6693,FALSE,,
6670,FALSE,,
6651,FALSE,,
6636,FALSE,,
6613,FALSE,,
6612,FALSE,,
6611,FALSE,,
6546,FALSE,,
6544,FALSE,,
6483,FALSE,,
6479,FALSE,,
6473,FALSE,,
10919,FALSE,,
10917,FALSE,,
10900,FALSE,,
10873,FALSE,,
6417,FALSE,,
6374,FALSE,,
6338,FALSE,,
6306,FALSE,,
6291,FALSE,,
6265,FALSE,,
6202,FALSE,,
6195,FALSE,,
6157,FALSE,,
6144,FALSE,,
6126,FALSE,,
6123,FALSE,,
6119,FALSE,,
6078,TRUE,,
6038,FALSE,,
6019,FALSE,,
6017,FALSE,,
6008,FALSE,,
5982,FALSE,,
5974,FALSE,,
5944,TRUE,,
5746,FALSE,,
5689,FALSE,,
5621,FALSE,,
5575,FALSE,,
5569,FALSE,,
5529,FALSE,,
5523,TRUE,,
5474,FALSE,,
5466,FALSE,,
5451,FALSE,,
5434,FALSE,,
5426,FALSE,,
5418,FALSE,,
5347,TRUE,,
5345,FALSE,,
5329,TRUE,,
5320,FALSE,,
5314,FALSE,,
5310,FALSE,,
5273,FALSE,,
5254,FALSE,,
5250,FALSE,,
5246,FALSE,,
5239,FALSE,,
5221,FALSE,,
5200,FALSE,,
5208,FALSE,,
5181,FALSE,,
5144,FALSE,,
5109,FALSE,,
5103,FALSE,,
5091,FALSE,,
5089,FALSE,,
5066,FALSE,,
5032,FALSE,,
4997,FALSE,,
4994,FALSE,,
4993,FALSE,,
4974,FALSE,,
4973,FALSE,,
4940,FALSE,,
4906,FALSE,,
4871,FALSE,,
4858,TRUE,,
4842,FALSE,,
4827,FALSE,,
4825,FALSE,,
4793,FALSE,,
4790,FALSE,,
4755,FALSE,,
4754,FALSE,,
4753,FALSE,,
4752,FALSE,,
4724,FALSE,,
4709,FALSE,,
4699,FALSE,,
4688,FALSE,,
4674,FALSE,,
4651,FALSE,,
4579,FALSE,,
4571,FALSE,,
4534,FALSE,,
4518,FALSE,,
4507,FALSE,,
4503,FALSE,,
4496,FALSE,,
4469,FALSE,,
4464,FALSE,,
4447,FALSE,,
10698,FALSE,,
10693,FALSE,,
10623,FALSE,,
4418,FALSE,,
4398,FALSE,,
4397,FALSE,,
4386,FALSE,,
4382,FALSE,,
4369,FALSE,,
4365,FALSE,,
4362,FALSE,,
4353,FALSE,,
4346,FALSE,,
4334,FALSE,,
4331,FALSE,,
4316,FALSE,,
4314,FALSE,,
4299,TRUE,,
4265,FALSE,,
4275,FALSE,,
4250,FALSE,,
4238,FALSE,,
4231,FALSE,,
4175,TRUE,,
4164,FALSE,,
4160,FALSE,,
4150,FALSE,,
4145,FALSE,,
4110,FALSE,,
4093,FALSE,,
4092,FALSE,,
4063,FALSE,,
4056,FALSE,,
4048,FALSE,,
4049,FALSE,,
4041,FALSE,,
4015,FALSE,,
4003,FALSE,,
3998,FALSE,,
3993,FALSE,,
3962,FALSE,,
3964,FALSE,,
3961,FALSE,,
3959,FALSE,,
3958,FALSE,,
3947,FALSE,,
3925,FALSE,,
3924,FALSE,,
3908,FALSE,,
3907,FALSE,,
3906,FALSE,,
3895,FALSE,,
3875,FALSE,,
3835,FALSE,,
3796,FALSE,,
3788,FALSE,,
3789,FALSE,,
3784,FALSE,,
3767,FALSE,,
3764,FALSE,,
3757,FALSE,,
3706,FALSE,,
3704,FALSE,,
3703,FALSE,,
3696,FALSE,,
3647,FALSE,,
3626,FALSE,,
3607,FALSE,,
3609,FALSE,,
3469,FALSE,,
3420,FALSE,,
10585,FALSE,,
3418,FALSE,,
3396,FALSE,,
3355,FALSE,,
3347,FALSE,,
3288,FALSE,,
3279,FALSE,,
3277,FALSE,,
3272,FALSE,,
3229,FALSE,,
3228,FALSE,,
3227,FALSE,,
3164,FALSE,,
3110,FALSE,,
3085,FALSE,,
3075,FALSE,,
3066,FALSE,,
3027,FALSE,,
3011,FALSE,,
2996,FALSE,,
2990,FALSE,,
2974,FALSE,,
2956,FALSE,,
2786,FALSE,,
2731,FALSE,,
2654,FALSE,,
2589,FALSE,,
2494,TRUE,,
2489,FALSE,,
2491,FALSE,,
2481,FALSE,,
10438,FALSE,,
2416,FALSE,,
2398,FALSE,,
2388,FALSE,,
2385,FALSE,,
2383,FALSE,,
2328,FALSE,,
2319,FALSE,,
2316,FALSE,,
2309,FALSE,,
2132,FALSE,,
2081,FALSE,,
2046,FALSE,,
2017,FALSE,,
2015,FALSE,,
1959,FALSE,,
1958,FALSE,,
1933,FALSE,,
1849,FALSE,,
1826,FALSE,,
1800,FALSE,,
1773,FALSE,,
1766,FALSE,,
1691,FALSE,,
1638,FALSE,,
1478,FALSE,,
1432,FALSE,,
,,,
,Total: ,385,
,Fulfilled by original author: ,17,4%
,Not fulfilled by original author: ,368,96%