user/login,created_at,PullRequestNumber
jeremyn,2017-06-01T14:57:39Z,10072
J0WI,2017-09-06T17:00:30Z,10350
Hainish,2017-08-23T01:59:07Z,10773
J0WI,2017-09-06T16:58:38Z,10851
Bisaloo,2017-07-09T08:24:48Z,10965
afarrow,2017-08-02T02:07:46Z,11199
J0WI,2017-07-26T14:32:04Z,11250
ghost,2017-08-07T20:06:16Z,11637
Hainish,2017-08-03T16:39:02Z,11639
J0WI,2017-08-09T22:36:46Z,11764
jsha,2015-03-16T20:26:34Z,1187
J0WI,2017-09-06T18:46:20Z,11896
cowlicks,2017-10-18T01:04:38Z,11998
jeremyn,2017-08-29T03:19:57Z,12170
J0WI,2017-09-07T18:14:37Z,12207
J0WI,2017-09-06T19:08:47Z,12235
J0WI,2017-09-06T18:38:38Z,12255
jsha,2015-03-23T21:56:53Z,1240
jsha,2015-03-23T22:02:00Z,1242
jeremyn,2017-12-07T00:07:05Z,12503
J0WI,2017-10-07T12:59:22Z,12673
jeremyn,2017-11-21T18:37:35Z,12750
jeremyn,2017-11-21T21:47:35Z,12750
jeremyn,2017-11-21T19:25:37Z,12750
cowlicks,2017-09-29T19:57:09Z,12799
jeremyn,2017-10-20T16:50:44Z,12863
RReverser,2017-10-13T19:57:22Z,12938
kevinebaugh,2015-03-30T23:36:46Z,1311
gloomy-ghost,2017-10-27T00:40:16Z,13232
ghost,2017-11-02T21:36:27Z,13459
J0WI,2018-02-24T19:02:57Z,13522
J0WI,2017-11-26T16:16:30Z,13552
jsha,2015-04-06T18:15:30Z,1371
reedy,2015-04-19T22:21:03Z,1386
Bisaloo,2017-12-05T17:29:56Z,13865
jeremyn,2017-12-28T17:05:41Z,14029
jeremyn,2017-12-23T00:16:39Z,14042
Bisaloo,2018-01-04T09:17:03Z,14164
J0WI,2018-01-21T20:54:48Z,14349
jeremyn,2018-02-12T15:49:47Z,14423
jeremyn,2018-02-07T00:59:10Z,14552
Hainish,2018-02-14T22:45:19Z,14598
jeremyn,2018-02-18T21:20:17Z,14678
Hainish,2018-02-20T22:58:26Z,14678
Bisaloo,2018-02-21T07:03:29Z,14710
Bisaloo,2018-03-20T14:37:58Z,14767
cschanaj,2018-03-21T00:42:25Z,14944
Bisaloo,2018-03-22T19:03:22Z,14960
Bisaloo,2018-03-23T13:01:04Z,14978
cschanaj,2018-04-07T01:02:40Z,15048
J0WI,2018-05-15T22:00:32Z,15165
zoracon,2018-12-20T01:36:28Z,15246
gloomy-ghost,2018-05-29T00:24:21Z,15520
Bisaloo,2018-06-07T17:41:47Z,15586
Bisaloo,2018-06-07T07:48:46Z,15597
Bisaloo,2018-06-04T17:03:58Z,15617
Giltyhub,2018-06-26T17:07:12Z,15910
Bisaloo,2018-07-14T06:46:16Z,15998
Bisaloo,2018-07-26T14:34:29Z,16094
Bisaloo,2018-08-24T12:37:21Z,16370
J0WI,2018-11-10T14:26:30Z,16711
zoracon,2018-10-22T19:11:00Z,16924
zoracon,2018-11-09T21:16:40Z,17020
zoracon,2018-11-09T21:17:53Z,17024
tonyztan,2015-05-18T19:26:43Z,1708
J0WI,2018-12-23T14:30:23Z,17144
jsha,2015-06-23T17:15:01Z,1981
jsha,2015-07-07T19:08:46Z,2048
jsha,2015-07-14T21:31:10Z,2175
jsha,2015-07-16T20:49:04Z,2240
jsha,2015-08-26T21:17:58Z,2623
J0WI,2016-02-20T19:03:33Z,3633
fuglede,2016-03-06T13:11:02Z,3876
semenko,2016-01-19T21:28:33Z,3901
J0WI,2016-01-31T20:36:54Z,3976
funkydude,2016-02-18T18:14:17Z,4102
fuglede,2016-02-18T16:54:59Z,4138
funkydude,2016-03-15T23:18:53Z,4211
fuglede,2016-03-13T11:06:46Z,4257
J0WI,2016-05-11T23:35:40Z,4279
RReverser,2016-03-11T14:21:37Z,4326
schmiedecker,2016-10-11T17:08:36Z,4368
RReverser,2017-08-30T16:31:10Z,4400
J0WI,2016-03-22T00:33:58Z,4407
ghost,2016-03-20T16:57:06Z,4421
jsha,2016-04-08T21:50:59Z,4505
J0WI,2016-04-14T13:51:39Z,4574
J0WI,2016-05-16T14:21:21Z,4592
J0WI,2016-06-08T10:01:29Z,4610
J0WI,2016-04-14T11:57:29Z,4611
J0WI,2016-04-14T11:51:16Z,4623
jeremyn,2016-08-18T23:40:44Z,4733
jeremyn,2016-08-19T00:38:02Z,4784
J0WI,2016-05-17T15:30:24Z,4817
jeremyn,2016-08-23T23:10:36Z,4823
jeremyn,2016-12-10T23:59:56Z,4888
jeremyn,2016-08-25T14:20:45Z,4908
J0WI,2016-08-23T21:35:47Z,5084
jeremyn,2016-08-20T18:49:57Z,5120
J0WI,2016-07-11T14:00:39Z,5124
jeremyn,2016-08-27T22:46:53Z,5171
jeremyn,2016-08-24T22:37:10Z,5222
jeremyn,2016-09-09T21:04:37Z,5290
jeremyn,2016-08-22T18:25:23Z,5307
jeremyn,2016-08-28T18:51:28Z,5307
J0WI,2017-07-22T12:33:42Z,5611
jeremyn,2016-08-30T19:21:24Z,5638
jeremyn,2016-08-22T19:36:04Z,5726
J0WI,2016-07-22T22:33:23Z,5769
jeremyn,2016-12-11T00:03:19Z,5809
jeremyn,2016-12-04T00:39:08Z,5850
luixxiul,2016-08-22T02:56:14Z,5856
Hainish,2016-08-20T20:59:30Z,5875
J0WI,2016-09-15T00:35:14Z,6346
J0WI,2016-08-21T11:32:54Z,6426
jeremyn,2016-12-18T20:41:41Z,6525
jsha,2014-10-06T20:23:08Z,654
J0WI,2016-09-01T21:56:05Z,6540
jeremyn,2017-12-07T15:03:39Z,6641
chris-barry,2017-07-23T19:18:32Z,6641
Foorack,2016-09-15T04:10:11Z,6681
jeremyn,2016-09-04T15:06:27Z,6707
jeremyn,2016-09-12T23:14:48Z,6862
jeremyn,2016-09-13T23:10:20Z,6867
J0WI,2016-09-14T10:04:45Z,6867
jeremyn,2016-09-16T21:40:56Z,6871
jeremyn,2016-09-20T19:54:49Z,6933
J0WI,2017-02-15T15:28:32Z,6951
gloomy-ghost,2017-03-01T20:13:04Z,6954
jeremyn,2016-10-24T15:42:45Z,6975
jeremyn,2016-10-03T14:13:59Z,7248
jeremyn,2016-12-16T16:28:22Z,7268
J0WI,2016-10-20T12:26:14Z,7374
J0WI,2017-03-01T21:29:34Z,7400
jeremyn,2016-11-24T17:18:24Z,7408
jeremyn,2016-11-01T22:38:09Z,7487
diracdeltas,2014-01-19T23:27:07Z,75
le4ker,2016-11-12T13:07:00Z,7503
jeremyn,2016-11-22T22:29:41Z,7527
jeremyn,2016-11-11T16:19:24Z,7535
jeremyn,2016-11-27T14:36:22Z,7643
J0WI,2017-03-12T12:52:44Z,7767
jsha,2014-08-14T22:47:01Z,78
semenko,2014-12-11T02:04:10Z,806
Hainish,2017-01-19T03:21:32Z,8128
mathiasbynens,2017-01-17T07:38:07Z,8201
jeremyn,2017-01-30T15:55:39Z,8271
Bisaloo,2018-03-15T16:38:22Z,8361
jeremyn,2017-03-07T01:48:39Z,8559
gloomy-ghost,2017-02-28T09:11:04Z,8821
jeremyn,2017-12-05T21:08:24Z,8884
jeremyn,2017-03-22T00:26:21Z,9153
Bisaloo,2017-03-27T09:30:03Z,9207
J0WI,2017-08-06T22:39:03Z,9251
jeremyn,2017-12-26T16:29:02Z,9279
J0WI,2018-09-21T21:30:52Z,9468
jeremyn,2017-10-31T21:27:01Z,9583
J0WI,2017-05-17T12:39:37Z,9780
ghost,2017-06-03T17:45:24Z,9780
jeremyn,2017-12-06T22:59:42Z,9998
