number,user/login
72035,seemethere
56530,wackxu
56529,gkudra-msft
56505,yue9944882
56498,zouyee
56434,luksa
56424,dims
56403,sttts
56378,vbmade2000
56326,m1093782566
56292,andyxning
56286,ccojocar
56196,ktsakalozos
56105,balajismaniam
56024,dimpavloff
55931,andyzhangx
55893,gnufied
55863,kovetskiy
55832,ceridwen
55815,gnufied
55811,SEJeff
55796,humblec
55794,porridge
55681,gregory-m
55625,dashpole
55496,JiangtianLi
55491,gnufied
55439,crimsonfaith91
55372,langyenan
55306,hzxuzhonghu
55218,chentao1596
55197,vladimirvivien
55183,jpbetz
55164,NickrenREN
55148,dixudx
70519,feiskyer
70494,RenaudWasTaken
70466,Pingan2017
70461,mysunshine92
55018,dims
55000,deads2k
54969,madhanrm
54938,nikhita
54893,mengqiy
54892,caesarxuchao
54746,jianglingxia
54700,pecameron
54630,lioncruise
54631,venkatsc
54615,andyzhangx
54581,bsnchan
54523,jekohk
54521,MrHohn
54516,dims
54490,rphillips
54411,frodenas
54372,thockin
54366,tamalsaha
54334,andyzhangx
54325,ixdy
54300,jsafrane
54219,m1093782566
54208,resouer
54177,itowlson
54144,zouyee
54078,bcreane
54046,hzxuzhonghu
54018,BaluDontu
54023,divyenpatel
53993,jonpulsifer
53971,jianglingxia
53950,adityadani
53944,gregory-m
53920,apelisse
53816,marun
53818,MrHohn
53764,FengyunPan
53696,drinktee
53690,mattjmcnaughton
53673,timothysc
53631,dixudx
53641,gregory-m
53614,dims
53604,cblecker
70415,pohly
70392,harsh-px
53458,dims
53400,micahhausler
53345,ncdc
53167,dashpole
53152,mbohlool
53158,liggitt
53107,Random-Liu
53088,mtaufen
53058,kad
52981,CaoShuFeng
52956,m1093782566
52922,roycaihw
52910,FengyunPan
52821,FengyunPan
52744,rphillips
52687,mtanino
52656,rrati
52610,surajssd
52562,ironcladlou
52500,wongma7
52478,caiyixiang
52471,xingzhou
52451,yujuhong
52418,wackxu
52377,MrHohn
52376,nicksardo
52360,shyamjvs
52334,redbaron
52324,linyouchong
52322,davidz627
52290,jiayingz
52243,zjj2wry
52193,StevenACoffman
52183,MrHohn
52156,cbonte
52149,lichuqiang
52100,ihmccreery
52052,joelsmith
52046,dashpole
52035,yujuhong
52013,FengyunPan
51938,vikaschoudhary16
70291,gnufied
70243,runcom
70216,imjching
70205,imjching
70204,imjching
70164,imjching
51869,cofyc
51839,jennybuckley
51795,dims
51765,mitake
51727,juanvallejo
51686,choury
51660,jiayingz
51634,verb
51528,yastij
51465,soltysh
51428,zjj2wry
51409,FengyunPan
51337,php-coder
51321,mengqiy
51244,lichuqiang
51226,BaluDontu
51186,dixudx
51166,verult
51159,janetkuo
51148,ironcladlou
51063,madhanrm
51026,xtophs
51024,fisherxu
50849,dixudx
50780,vladimirvivien
50759,fisherxu
50603,shiywang
50561,cblecker
50532,steveperry-53
50482,RenaudWasTaken
70092,bclau
50205,dixudx
50108,zzq889
50072,squall0gd
50020,tcharding
49976,aveshagarwal
49903,lpabon
49834,guoshimin
49808,dims
49785,FengyunPan
49765,jianglingxia
49749,sbezverk
49729,LihuaWu
49727,gnufied
49697,zetaab
49687,tcharding
49677,dims
49631,duglin
49607,dixudx
49597,jeffvance
49596,jingxu97
49583,irfanurrehman
49555,jianglingxia
49530,dixudx
49451,shyamjvs
49454,dixudx
49426,shyamjvs
49406,castrojo
49390,scholzj
49388,kevtaylor
49342,RenaudWasTaken
49328,euank
49310,rjog
49222,yujuhong
49174,shiywang
49137,deads2k
49125,abgworrall
49112,gmarek
49009,x13n
48986,timoreimann
48964,ixdy
48970,caseydavenport
48965,mindprince
48940,rootfs
48861,mbohlool
48736,crimsonfaith91
69888,mooncak
69878,Klaven
48615,sttts
48595,bonowang
48576,caesarxuchao
48574,sakshamsharma
48536,CaoShuFeng
48357,faraazkhan
48310,abgworrall
48286,copejon
48200,irfanurrehman
48194,k82cn
48138,FengyunPan
48065,ironcladlou
48009,perotinus
47991,ncdc
47979,mbohlool
47849,tomerf
47821,jianglingxia
47806,dcbw
47690,caesarxuchao
47658,PiotrProkop
47621,danehans
47602,rootfs
47584,zjj2wry
47530,mindprince
47488,k82cn
47480,danehans
47454,ixdy
47425,rrati
47384,shiywang
47323,karataliu
47321,mindprince
47290,jhorwit2
47272,danehans
47266,iterion
47245,yiqinguo
47179,ddysher
47144,jingxu97
47091,vishh
47075,janetkuo
47049,dshulyak
69691,gnufied
46952,k82cn
46843,kokhang
46821,jeffvance
46759,zjj2wry
46743,Random-Liu
46727,janetkuo
46699,wanghaoran1988
46660,jackfrancis
46600,fabriziopandini
46597,dixudx
46566,xychu
46547,aaronlevy
46541,verult
46542,derekwaynecarr
46517,goblain
46425,wanghaoran1988
46412,zjj2wry
46138,pmichali
46044,pmichali
46011,MrHohn
45993,irfanurrehman
45952,harryge00
45896,dashpole
45840,henriquetruta
45781,robertojrojas
45764,krmayankk
45742,janetkuo
45708,jianglingxia
45684,bowei
45682,kensimon
45681,nicksardo
45660,DaiHao
45649,k82cn
45618,wongma7
45620,gnufied
45564,whitlockjc
45565,Q-Lee
45551,danehans
45540,edevil
69631,Huang-Wei
69573,bjhaid
69529,dims
69516,feiskyer
45478,HardySimpson
45356,wojtek-t
45345,codablock
45322,gyliu513
45297,divyenpatel
45286,gnufied
45268,redbaron
45251,gyliu513
45186,cedriclam
45161,dims
45154,luxas
45148,rickypai
45150,allencloud
45099,k82cn
45049,wongma7
44987,perotinus
44940,sjenning
44906,k82cn
44895,dcbw
44883,ravigadde
44781,wongma7
44740,ravisantoshgudimetla
44730,kow3ns
44709,xilabao
44653,madhusudancs
44612,nikhita
44606,ivan4th
44602,soltysh
44590,ihmccreery
44565,divyenpatel
44474,ahmetb
44443,jamiehannaford
44382,BaluDontu
44375,BaluDontu
44346,mikedanese
44300,BaluDontu
44241,tomerf
44159,wanghaoran1988
44116,feiskyer
44113,mikkeloscar
44082,zetaab
44068,mkumatag
43987,ccojocar
43922,cezarsa
69383,bowei
69381,bowei
69351,jennybuckley
43887,dcbw
43850,xilabao
43732,wanghaoran1988
43702,wojtek-t
43637,wongma7
43620,ktsakalozos
43544,liggitt
43510,karataliu
43508,shiywang
43501,xingzhou
43493,pipejakob
43338,fabianofranz
43188,BaluDontu
43143,divyenpatel
43108,luomiao
43056,FengyunPan
43048,shiywang
43008,ravisantoshgudimetla
42961,wanghaoran1988
42890,wanghaoran1988
42717,andrewsykim
42689,ConnorDoyle
42669,curtisallen
42667,divyenpatel
42659,enisoc
42650,gnufied
42495,ixdy
42426,kerneltime
42395,nicksardo
42376,jingxu97
42302,wanghaoran1988
42296,perotinus
42287,BaluDontu
42202,squeed
42169,ncdc
69249,mikedanese
69212,warmchang
42087,cblecker
42042,perotinus
41950,khenidak
41942,csbell
41931,jessfraz
41897,luxas
41877,bruceauyeung
41830,irfanurrehman
41818,aveshagarwal
41785,jamiehannaford
41775,CaoShuFeng
41721,luxas
41704,bsalamat
41694,shiywang
41684,gyliu513
41680,gyliu513
41666,mikedanese
41659,jeffvance
41636,luxas
41618,JiangtianLi
41572,liggitt
41562,alejandroEsc
41563,gyliu513
41555,jsravn
41535,aanm
41455,gnufied
41380,shouhong
41331,dshulyak
41319,deads2k
41281,ericchiang
41163,janetkuo
41137,resouer
41133,gmarek
41116,lukaszo
41077,deads2k
40996,NickrenREN
40964,tanshanshan
40910,justinsb
40892,robdaemon
40881,seh
40838,kow3ns
40814,axinojolais
40784,adamreese
40760,mikedanese
40731,sttts
40722,micmro
40695,vladimirvivien
40666,mengqiy
40665,brendandburns
71955,apelisse
69120,aledbf
40634,crassirostris
40619,Random-Liu
40595,liggitt
40583,justinsb
40576,nikhiljindal
40528,shashidharatd
40497,lavalamp
40464,csbell
40423,mkutsevol
40417,jsravn
40385,ncdc
40374,fejta
40317,kpgriffith
40301,deads2k
40239,dashpole
40179,pmorie
40168,madhusudancs
40149,luxas
40126,resouer
40108,MrHohn
39998,DukeXar
39944,NickrenREN
39901,cheftako
39899,MrHohn
39883,rkouj
39852,xingzhou
39743,pweil-
39735,NickrenREN
39732,tsmetana
39731,pires
39631,deads2k
39612,sttts
39556,MatMaul
39535,adityadani
39468,NickrenREN
39425,jsafrane
39384,deads2k
39351,wojtek-t
39328,shashidharatd
39280,luxas
39205,brimworks
39179,NickrenREN
39165,deads2k
39112,philips
39093,dgoodwin
39092,deads2k
39063,xingzhou
39055,anguslees
69002,davidmccormick
68948,davidz627
39001,xilabao
38984,deads2k
38959,daconstenla
38924,vladimirvivien
38865,codablock
38818,jsafrane
38816,deads2k
38708,erictune
38636,dhawal55
38584,luxas
38565,luxas
38505,pospispa
38445,brendandburns
38433,yuanying
38376,sadlil
38357,hex108
38260,fraenkel
38169,caseydavenport
37886,obnoxxx
37846,sjenning
37845,rootfs
37723,mtaufen
37562,roberthbailey
37476,wojtek-t
37287,bryk
37090,humblec
68842,wenjiaswe
68795,damemi
68790,nikhita
68753,johnSchnake
68739,losipiuk
37066,xilabao
37037,wlan0
37032,gnufied
37036,dcbw
37039,timothysc
36984,wojtek-t
36964,ixdy
36840,jingxu97
36802,brendandburns
36723,dims
36686,rkouj
36650,tadovas
36643,kzwang
36639,NickrenREN
36603,fabianofranz
36590,thockin
36561,liggitt
36434,nebril
36373,codablock
36320,MrHohn
36283,nikhiljindal
36196,mwielgus
36190,dashpole
36174,JacobTanenbaum
36154,m1093782566
36066,mfojtik
36050,gajju26
36001,smarterclayton
35987,kow3ns
35970,deads2k
35945,jianhuiz
35943,jianhuiz
35910,s-urbaniak
35796,pires
35776,jimmycuadra
35715,apelisse
35691,kargakis
35688,soltysh
35687,shashidharatd
35678,xingzhou
35629,kiall
35608,soltysh
35434,rootfs
68702,jingyih
68680,benoitf
68576,jennybuckley
35343,mengqiy
35287,soltysh
35272,yarntime
35137,dashpole
35132,dashpole
35060,ixdy
35038,sjenning
35019,feiskyer
34997,kerneltime
34983,jingxu97
34914,brendandburns
34851,ncdc
34831,dcbw
34789,adohe
34786,davidopp
34754,DirectXMan12
34558,mikedanese
34546,mwielgus
34513,MrHohn
34456,kargakis
34450,maciaszczykm
34271,pmorie
34138,ingvagabund
34028,juanvallejo
34010,soltysh
34005,jszczepkowski
33990,asalkeld
33684,fraenkel
33668,mikedanese
33601,sjenning
33593,DirectXMan12
33585,ericchiang
33337,mbohlool
68565,vantuvt
68562,RenaudWasTaken
68552,the-redback
68540,wgliang
68538,wgliang
68534,SataQiu
68481,duglin
68435,humblec
68408,k82cn
33296,deads2k
33275,maciaszczykm
33270,kiall
33250,mengqiy
33197,adityakali
33111,tmrts
33080,pweil-
32886,freehan
32850,m1093782566
32817,jeffvance
32781,lukaszo
32778,deads2k
32738,Amey-D
32687,jouve
32655,dshulyak
32582,jlowdermilk
32493,deads2k
32231,timothysc
32190,errordeveloper
32065,ping035627
32082,gmarek
32049,smarterclayton
31990,girishkalele
31908,colhom
31732,copejon
31701,kargakis
31616,humblec
68388,wgliang
68371,msau42
68278,lbernail
68237,Random-Liu
68229,loburm
68230,bertinatto
31556,mtaufen
31491,dims
31470,caesarxuchao
31441,deads2k
31434,johscheuer
31390,hongchaodeng
31217,mfanjie
31212,YuPengZTE
31067,adohe
30986,jsafrane
30983,mwielgus
30951,caesarxuchao
30932,derekwaynecarr
30935,vipulsabhaya
30922,yifan-gu
30825,wongma7
30777,k82cn
30730,janetkuo
30724,jingxu97
30588,dshulyak
30458,nikhiljindal
30467,vishh
30392,ericchiang
30409,madhusudancs
30346,dshulyak
30327,janetkuo
30288,himpich
30277,wojtek-t
30251,hongchaodeng
30250,krousey
30145,markturansky
30153,mikedanese
30003,jlowdermilk
29981,ping035627
29879,timstclair
29850,sdminonne
29801,rbuskens
29785,petemiron
68196,losipiuk
68159,saad-ali
68154,mikedanese
68141,jsafrane
68122,krzysztof-jastrzebski
68087,grayluck
29740,svanharmelen
29694,childsb
29653,249043822
29649,fgrzadkowski
29641,ivan4th
29637,brendandburns
29460,rootfs
29459,mtaufen
29378,vefimova
29291,jimmidyson
29240,dhawal55
29207,fgrzadkowski
29205,pskrzyns
29187,soltysh
29179,lixiaobing1
29147,caesarxuchao
29138,kshafiee
29103,xiangpengzhao
29049,dubstack
29037,matthewdupre
28991,249043822
28955,dims
28949,asalkeld
28743,therc
28736,dims
28711,krousey
28661,dubstack
28636,derekwaynecarr
28417,kevensen
28234,damemi
28212,soltysh
28132,madhusudancs
28104,ping035627
28085,u2takey
28024,jszczepkowski
27977,ciwang
68033,yastij
68030,MrHohn
27792,jeffvance
27778,screeley44
27724,wonderfly
27600,caesarxuchao
27589,mtaufen
27541,sylwekb
27480,mml
27409,adityakali
27353,jsafrane
27336,brendandburns
27330,olegshaldibin
27277,wojtek-t
27252,mfanjie
27227,abhgupta
27210,adityakali
27157,soltysh
27113,adohe
27048,kargakis
26981,wfhartford
26980,hongchaodeng
26857,rajdeepd
26819,nikhiljindal
26829,lukaszo
26680,olegshaldibin
26660,salv-orlando
26634,petervo
26574,pmorie
26557,adohe
26500,andreimc
26417,vefimova
26399,ixdy
26388,caseydavenport
26335,girishkalele
26244,asalkeld
26165,ngtuna
26077,dims
26027,soltysh
26012,sitepodmatt
67784,cheftako
25982,derekwaynecarr
25968,rrati
25944,pwittrock
25938,sitepodmatt
25921,mml
25688,sjpotter
25690,fabianofranz
25681,vishh
25676,krousey
25638,caseydavenport
25624,kfox1111
25596,derekparker
25561,andyzheng0831
25536,zhouhaibing089
25526,lavalamp
25524,adohe
25505,brendandburns
25490,rootfs
25475,soltysh
25293,pwittrock
25137,huang195
25136,dcbw
25133,jayunit100
25130,deads2k
25108,lavalamp
25015,krancour
24992,brandonweeks
24924,mqliang
24869,yujuhong
24853,kevin-wangzefeng
24750,derekwaynecarr
24703,dagnello
24569,williamsandrew
24474,deads2k
24439,nikhiljindal
24299,uruddarraju
24283,andyzheng0831
24195,stefwalter
67760,houjun41544
67708,joerocklin
24154,caseydavenport
24142,rrati
24134,kevin-wangzefeng
24124,AlainRoy
24106,vishh
24090,adohe
24079,hongchaodeng
24071,therc
24022,hongchaodeng
24015,yujuhong
23958,petervo
23847,jianhuiz
23834,mjg59
23810,sttts
23756,smarterclayton
23724,maciaszczykm
23689,maclof
23680,rosskukulinski
23674,rhcarvalho
23673,metral
23626,paulbakker
23606,kandekar
23605,mikedanese
23590,kargakis
23589,koubas
23582,zhouhaibing089
23579,edevil
23578,edevil
23577,edevil
23576,chbatey
23566,bobbyrullo
23534,humblec
23530,mikedanese
23526,tyangliu
23509,jianhuiz
23516,zhouhaibing089
23502,huang195
23500,tam7t
23491,onorua
23493,soltysh
23489,dengshuan
23498,albertoarias
23440,mbruzek
23420,mfanjie
23407,jimmyjones2
23382,chbatey
23400,shanegibbs
23381,alban
23379,ingvagabund
23374,mattthias
23362,miguelfrde
23351,maclof
23343,derekparker
23346,huang195
23331,a-palchikov
23318,ohtake
23317,aanm
23325,NikolayMurha
23261,hongchaodeng
23250,huggsboson
23240,zhouhaibing089
23223,mikedanese
23210,rsc
23213,pweil-
23206,MikeSpreitzer
23194,hongchaodeng
23193,sdminonne
23185,xinxiaogang
23137,sondabar
23126,rata
23123,rata
23122,screeley44
23121,deromka
23119,paralin
23131,AlbertoPeon
23116,metral
23099,shawnps
23095,huang195
23101,humblec
23090,tgraf
23074,derekparker
23069,dcbw
23071,thockin
23066,cjcullen
23056,nstogner
23065,tiwillia
23050,tobad357
23040,zhouhaibing089
23035,xinxiaogang
23031,cgilling
23002,davidewatson
22985,kevin-wangzefeng
22977,yeasy
22972,ramitsurana
22957,dachulin
22936,deromka
22915,aledbf
22905,gambol99
22902,metral
22879,mm0
22870,derekparker
22852,miminar
22845,ZhangZhenhua
22829,john-dodson
22805,NeilHanlon
22787,lingz
22776,zhouhaibing089
22774,mqliang
22777,AlbertoPeon
22756,huang195
22748,huang195
22730,yeasy
22726,lazypower
22705,petems
22691,mkulke
22686,Pensu
22706,jwendell
22685,Pensu
22665,rootfs
22649,rootfs
22630,mzupan
22622,m3ngyang
22627,mdshuai
22626,xinxiaogang
22620,mdshuai
22604,hongchaodeng
22597,balonus
22577,jpiccari
22575,mcluseau
22562,jpiccari
22574,mcluseau
22552,beckettsean
22546,MikeSpreitzer
22519,rutsky
22501,kshelton
22497,vjsamuel
22495,huang195
22488,pstauffer
22478,WeixuZhuang
22463,huang195
22442,titilambert
22439,Seb-Solon
22411,superbrothers
22414,mfanjie
22395,beckettsean
22401,jayunit100
22350,jasrusable
22328,twmartin
22323,njuicsgz
22321,WeixuZhuang
22282,andrewstuart
22276,gertipoppel
71723,liggitt
71637,wengjixi
67471,yue9944882
22254,imkin
22250,mfanjie
22249,ZhangZhenhua
22246,huang195
22214,andyhky
22209,leecalcote
22194,chbatey
22170,metmajer
22154,sdminonne
22153,idvoretskyi
22152,txomon
22144,txomon
22140,idvoretskyi
22126,izogain
22079,jumpkick
22031,ckleban
22030,mikedanese
22023,mkulke
22019,jsravn
21992,balooo
21987,justinsb
21982,justinsb
21980,rutsky
21972,olivierlemasle
21962,Pensu
21950,macb
21956,MikeSpreitzer
21943,idvoretskyi
21936,idvoretskyi
21942,wanyenhsu
21894,huang195
21874,rutsky
21863,codeb2cc
21856,bprashanth
21804,imkin
21787,huang195
21773,matthughes
21772,matthughes
21752,BugRoger
21737,zreigz
21744,ethernetdan
21678,academ1c
21680,liggitt
21665,mfanjie
21658,yeasy
21644,thibserot
21642,mitake
21639,jayunit100
21638,JonatanE
21601,freeformz
21554,wlodekb
21532,jumpkick
21524,spxtr
21531,mfanjie
21496,ncdc
21495,robszumski
21482,chrisleck
21446,Hui-Zhi
21431,freehan
21424,aledbf
21422,ahuffman
21399,jsravn
21395,jawnsy
21407,jsravn
21379,andreikop
21378,chbatey
21373,enoodle
21362,ArtfulCoder
21361,yujuhong
21356,vishh
21354,erictune
21351,smarterclayton
21350,dchen1107
21349,Random-Liu
21348,caesarxuchao
21352,mikedanese
21347,yujuhong
21345,ckleban
21343,a-robinson
21342,spxtr
21341,smarterclayton
21346,janetkuo
21337,vishh
21335,deads2k
21328,dcbw
21327,amygdala
21324,deads2k
21326,bprashanth
21318,kargakis
21314,luebken
21319,therc
21310,wojtek-t
21309,luebken
21308,markturansky
21307,wojtek-t
21304,tobad357
21300,soltysh
21299,wojtek-t
21301,mdevilliers
21294,luxas
21292,gtank
21295,adohe
21291,liggitt
21287,macb
21290,vsimon
21280,mikedanese
21278,pweil-
21281,megastef
21270,tobad357
21286,smarterclayton
21266,deads2k
21265,stevekuznetsov
21228,mattjmcnaughton
21222,huhoo
21207,WeixuZhuang
21202,sjpotter
21190,jianhuiz
21170,MikeSpreitzer
21177,laushinka
21160,justinsb
21146,brosner
21137,jtblin
21132,petermd
21110,MikeSpreitzer
21104,krousey
21072,MikeSpreitzer
21046,MikeSpreitzer
21040,MikeSpreitzer
21032,sjenning
21016,hongchaodeng
21001,ericchiang
20988,golvteppe
20973,likku3
20967,luxas
20965,olivierlemasle
20948,ghodss
20943,gswallow
20931,gswallow
20896,blixtra
20894,mkulke
20887,sjpotter
20851,imkin
20831,jonboulle
20821,olivierlemasle
20809,jsravn
20807,jakexks
20802,aveshagarwal
20801,Pensu
20790,therc
20789,rutsky
20782,nickschuch
20768,caseydavenport
20765,janetkuo
20746,jtblin
20733,jianhuiz
20728,shanegibbs
20717,rutsky
20711,blixtra
20704,zreigz
20699,jiangyaoguo
20698,m3ngyang
20683,jdef
20666,arimed
20658,nirdothan
20622,wstrange
20626,nikhiljindal
20579,sttts
20563,roberthbailey
20557,adohe
20553,jonboulle
20551,erictune
20541,thockin
20546,luxas
20534,bprashanth
20533,kolyshkin
20528,mikedanese
20501,piosz
20496,matthewdupre
20493,rootfs
20483,luxas
20482,eljefedelrodeodeljefe
20490,swagiaal
20481,kargakis
20468,feihujiang
20465,yujuhong
20458,freehan
20447,justinsb
67443,chakri-nelluri
67435,feiskyer
20442,childsb
20446,derekwaynecarr
20439,gtank
20438,MikeSpreitzer
20419,jacobtomlinson
20409,adohe
20415,liangchenye
20408,kylegordon
20398,mfanjie
20390,pra85
20389,mqliang
20385,mqliang
20384,mattjmcnaughton
20377,smarterclayton
20378,jtblin
20372,dpratt
20358,nikhiljindal
20351,krousey
20347,ericchiang
20330,bryk
20331,linsun
20321,mqliang
20313,adohe
20308,leecalcote
20318,mfanjie
20298,nohkwangsun
20296,nohkwangsun
20295,nohkwangsun
20284,ncdc
20281,aanm
20273,kargakis
20267,arulrajnet
20244,mattjmcnaughton
20216,KurtStam
20212,reddog
20204,HaiyangDING
20203,combk8s
20207,jsravn
20153,jsravn
20157,liggitt
20152,jsravn
20147,mfanjie
20138,jetsanix
20128,vjsamuel
20102,spxtr
20085,pjvds
20081,luxas
20080,nagarjung
20071,jetsanix
20069,BugRoger
20062,mikefaille
20054,markturansky
20020,krobertson
19982,soupdiver
19981,adimania
19976,aarondav
19985,luxas
19970,caesarxuchao
19961,mamikonyana
19951,huang195
19929,luxas
19928,jfchevrette
19918,kartouch
19916,mitake
19915,mitake
19913,fabiand
19907,olegshaldibin
19872,nagarjung
19868,jsafrane
19855,mitake
19832,caseydavenport
19819,ysh7
19807,timstclair
19806,madhusudancs
19795,caseydavenport
19793,MikeSpreitzer
19783,magicwang-cn
19772,joshix
19769,luxas
19763,pwais
19755,mcluseau
19737,caesarxuchao
19708,huang195
19707,jsafrane
19706,jonboulle
19695,nirdothan
19689,adohe
19679,NanXiao
19675,krobertson
19644,magicwang-cn
19643,rohitsardesai83
19642,MikeSpreitzer
19640,MikeSpreitzer
19625,maazkhan
19605,aveshagarwal
19606,bmeck
19580,WeixuZhuang
19576,maclof
19558,idvoretskyi
19556,idvoretskyi
19555,spiffxp
19537,jdef
19534,brendandburns
19524,derekparker
19522,zquestz
19514,rickypai
19516,ravigadde
19489,imkin
19488,derekwaynecarr
19486,MikeSpreitzer
19478,mfojtik
19474,jmastr
19473,timbyr
19459,idvoretskyi
19451,countdigi
19450,countdigi
19447,therc
19418,bharaththiruveedula
19404,nagarjung
19390,danielschonfeld
19391,timstclair
19379,caesarxuchao
19376,luxas
19361,tombenner
19362,tmrts
19363,tmrts
19351,therc
19339,wallnerryan
19337,danielschonfeld
19326,fgimenez
19321,wanghaoran1988
19288,tooooolong
19282,nagarjung
19278,philips
19276,Sha01in
19272,cmluciano
19271,mbonaci
19263,hongchaodeng
19260,mafraba
19256,eslizn
19242,mqliang
19240,itorres
19236,doriordan
19232,itorres
19238,therc
19225,mikefaille
19212,jim3ma
19207,thibserot
19199,yuval-k
19216,luxas
19193,luxas
19179,loopingz
19148,andyzheng0831
19147,luxas
19126,smashraf
19121,gtaylor
19108,gyuho
19104,jonboulle
19100,demohi
19078,nagarjung
19069,fgrzadkowski
19066,bboreham
19038,WeixuZhuang
19020,antoineco
19016,cmluciano
19004,magicwang-cn
19001,jmastr
18992,mattnworb
18984,davidxia
18985,mlafeldt
18983,davidxia
18979,WeixuZhuang
18961,mamercad
18954,NanXiao
18932,luxas
18936,m3ngyang
18906,MikeSpreitzer
18894,luxas
18823,sebgoa
18829,lebauce
18821,rastut
18835,brendandburns
18816,jsravn
18819,wojtek-t
18813,sebgoa
18806,tombenner
67308,cofyc
67255,bertinatto
67211,juanvallejo
18763,RoelVanNyen
18752,miry
18748,miry
18747,tPl0ch
18736,miry
18728,miry
18711,huang195
18696,chrisleck
18695,freeformz
18685,caesarxuchao
18669,luxas
18650,mfojtik
18595,mamikonyana
18588,tPl0ch
18583,jsravn
18575,gyliu513
18574,gyliu513
18562,fgimenez
18507,feihujiang
18491,gyliu513
18482,rochacon
18466,xiang90
18458,hongchaodeng
18452,xiang90
18439,gambol99
18431,bxy09
18423,tombenner
18417,Pensu
18415,Pensu
18413,xiang90
18416,xiang90
18401,aaronlevy
18398,mamikonyana
18390,SpencerBrown
18329,gyliu513
18327,tmrts
18324,tmrts
18339,bzz
18320,WIZARD-CXY
18285,thomasfricke
18271,tmrts
18268,tmrts
18263,davidopp
18262,davidopp
18258,antoineco
18260,erictune
18252,hongbin
18228,yanatan16
18216,gmarek
18217,tmrts
18203,shalcanleo
18195,kevin-wangzefeng
18184,amygdala
18177,13rac1
18170,xiang90
18157,sdminonne
18152,kevin-wangzefeng
18151,mqliang
18141,tback
18138,mqliang
18101,brendandburns
18085,ttomsu
18071,jhadvig
18058,mqliang
18047,caesarxuchao
18038,slaws
18036,tayzlor
18027,roboll
18014,thanhson1085
18003,philips
18002,wiwiwa
17993,13rac1
17979,tekgrrl
17975,aaronlevy
17969,dgonyeo
17968,dgonyeo
17958,sils
17963,jeffmendoza
17952,stevesloka
17946,jhadvig
17936,mqliang
17930,rafael81
17932,gertipoppel
17924,xinxiaogang
17926,jkurz
17923,yuvipanda
17922,smarterclayton
17920,abutcher
17913,jtblin
17908,MichielDeMey
17910,chaolou
17900,mali11
17909,mscherer
17894,mqliang
17892,mqliang
17885,hongchaodeng
17878,mqliang
17877,resouer
17855,wiwiwa
17856,mqliang
17861,phanect
17844,13rac1
17841,mqliang
17819,mqliang
17818,mqliang
17814,themez
17817,mqliang
17813,mqliang
17810,yifan-gu
17803,davidsiefert
17800,davidsiefert
17777,fgrzadkowski
17754,WeixuZhuang
17733,tpounds
17711,anish
17694,hongchaodeng
17673,hongchaodeng
17669,WeixuZhuang
17663,yanns
17655,ghost
17662,mqliang
17649,jtblin
17633,yangxiangyu
17643,jtblin
17628,tmrts
17622,AlexChesser
17625,ruizeng
17617,romanek-adam
17602,alexhersh
17601,13rac1
17615,robdaemon
17597,alexhersh
17611,cmluciano
17574,hongchaodeng
17570,dermidgen
17559,wojtek-t
17552,AlexChesser
17551,caseydavenport
17543,ncdc
17514,cmluciano
17494,kikov79
17492,johscheuer
17481,mqliang
17480,mqliang
17479,mqliang
17478,brendandburns
17465,wonderfly
17454,jayunit100
17451,titilambert
17442,WeixuZhuang
17439,frewsxcv
17438,spiffxp
17428,azr
17430,combk8s
17424,combk8s
17416,brendandburns
17410,hongchaodeng
17405,ArtfulCoder
17401,aaronlevy
17393,mml
17346,gtaylor
17349,peterlamar
17337,bigeasy
17326,caesarxuchao
17321,wonderfly
17308,kennethkalmer
17317,idvoretskyi
17304,resouer
17306,combk8s
17305,derekwaynecarr
17287,romanek-adam
17286,streamnsight
17283,streamnsight
17278,resouer
17277,mqliang
17274,mqliang
17272,asridharan
17270,timstclair
17264,WeixuZhuang
17265,gambol99
17233,mnagy
17213,luxas
17212,mnagy
17210,johscheuer
17193,dinvlad
17192,SuhasAnand
17188,hurf
17173,derekparker
17178,wonderfly
17159,2opremio
17152,daizuozhuo
17153,hSATAC
17148,sgoings
17133,derekwaynecarr
17114,apeeyush
17111,munnerz
17106,luontola
17100,idvoretskyi
17085,paralin
17096,mcluseau
17075,jeffvance
17093,pendoragon
17076,Symmetric
17050,combk8s
17048,feiskyer
17042,brendandburns
17041,anguslees
17034,mikedanese
17031,xelalexv
17030,csrwng
17024,13rac1
17011,resouer
16999,ZhuPeng
16992,ravilr
16964,liggitt
16966,idvoretskyi
16962,aaronlevy
16956,paralin
16933,erictune
16924,brendandburns
16921,buzzy
16911,sttts
16894,alexhersh
16890,saturnism
16877,anish
16876,hongchaodeng
16869,wonderfly
16862,krancour
16843,onlyjob
16842,resouer
16824,mattmoor
16802,extesy
16784,mqliang
16778,hongchaodeng
16724,sroze
16723,wulonghui
16712,mqliang
16713,mqliang
16698,mml
16682,sanabby
16681,sanabby
16662,gajju26
16660,mqliang
16655,resouer
16647,abursavich
16642,liguangbo
16646,aalexand
16609,fwalker
16603,oszi
16587,xelalexv
16559,mikedanese
16525,epc
16515,verb
16509,miminar
16489,mqliang
16487,resouer
16451,ncdc
16426,qinguoan
16420,qinguoan
16417,skenmy
16409,qinguoan
16408,qinguoan
16402,kelcecil
16380,caseydavenport
16356,qinguoan
16351,qinguoan
16354,mdshuai
16347,qinguoan
16343,huangyuqi
16339,samsabed
16311,brendandburns
16303,jvalencia
16301,s-urbaniak
16261,zhengguoyong
16258,mqliang
16251,sanabby
16253,samsabed
16250,yuvipanda
16246,rwehner
16236,jijun2
16226,enisoc
16237,resouer
16221,janetkuo
16199,justinsb
16204,caseydavenport
16189,beldougie
16179,madhusudancs
16178,madhusudancs
16159,ashcrow
16154,zhengguoyong
16150,sanabby
16146,feihujiang
16141,aanm
16129,errordeveloper
16109,fabianofranz
16111,sttts
16101,timothysc
16099,jsafrane
16086,jackgr
16064,nikhiljindal
16056,paralin
16044,mikedanese
16062,lavalamp
16026,hw-qiaolei
16024,feihujiang
16016,mqliang
16014,paralin
16023,rimusz
16009,brendandburns
16007,paralin
16006,paralin
16005,hw-qiaolei
15998,aanm
16004,paralin
15974,gambol99
15976,s-urbaniak
15972,gambol99
15956,rootfs
15946,stevesloka
15944,mqliang
15939,mqliang
15933,mqliang
15927,aanm
15926,brendandburns
15923,brendandburns
15911,pedro-r-marques
15888,paralin
15880,DazWilkin
15874,smarterclayton
15869,caesarxuchao
15850,mqliang
15831,zhengguoyong
15825,gabrfarina
15824,ramitsurana
15815,mqliang
15791,abutcher
15788,caesarxuchao
15784,csrwng
15780,cheld
15773,mqliang
15775,s-urbaniak
15769,mqliang
15764,mqliang
15765,mqliang
15755,zhengguoyong
15754,zhengguoyong
15753,mqliang
15750,yehuis4
15712,ramitsurana
15704,gambol99
15700,gosharplite
15696,resouer
15694,mqliang
15695,mqliang
15693,resouer
15691,timstclair
15657,agonzalezro
15645,ArtfulCoder
15625,ghost
15616,jijun2
15613,jijun2
15611,jijun2
15612,jimmidyson
15607,jijun2
15605,jijun2
15602,jijun2
15598,jijun2
15595,zhengguoyong
15596,zhengguoyong
15547,MartinPodval
15532,zhengguoyong
15518,ravilr
15533,resouer
15513,aledbf
67006,mbohlool
15500,chrisleck
15491,derekwaynecarr
15489,spohnan
15486,ixdy
15479,feiskyer
15475,jijun2
15476,burmanm
15468,feiskyer
15472,zhengguoyong
15465,feiskyer
15466,gmarek
15457,shenshouer
15459,jijun2
15455,mqliang
15453,eghobo
15445,sttts
15437,zhengguoyong
15435,zhengguoyong
15425,Dingshujie
15426,zhengguoyong
15422,ihmccreery
15399,csrwng
15370,mbruzek
15385,tpounds
15361,linzichang
15360,mfojtik
15356,linzichang
15353,tpounds
15338,bharrisau
15322,mattjmcnaughton
15305,mqliang
15304,mwielgus
15301,zhengguoyong
15295,anish
15296,anish
15293,resouer
15299,kevin-wangzefeng
15300,kevin-wangzefeng
15280,shenshouer
15279,shenshouer
15276,yifan-gu
15278,combk8s
15260,yifan-gu
15247,spiffxp
15238,mpuncel
15223,errordeveloper
15221,s-urbaniak
15215,wojtek-t
15207,elsonrodriguez
15194,mcluseau
15156,feiskyer
15151,linzichang
15146,linzichang
15149,jijun2
15136,jijun2
15138,mattmoor
15133,mqliang
15114,yifan-gu
15098,spiffxp
15096,tummychow
15082,samsabed
15067,jijun2
15060,jjmaestro
15059,jjmaestro
15057,hw-qiaolei
15054,enisoc
15051,feiskyer
15048,hw-qiaolei
15049,rombie
15041,kevensen
15012,vishh
14982,hw-qiaolei
14960,mattmoor
14912,aespejel
14883,roboll
14880,kevensen
14879,tpounds
14871,abutcher
14874,derekparker
14867,tummychow
14900,mqliang
14815,mqliang
14814,zhengguoyong
14813,linzichang
14812,arisu1000
14803,zhengguoyong
14794,zhengguoyong
14782,mylons
14736,aveshagarwal
14729,mqliang
14725,mqliang
14726,linzichang
14722,mqliang
14721,zhengguoyong
14716,combk8s
14715,zhengguoyong
14714,mqliang
14707,jijun2
14706,yifan-gu
14709,zhengguoyong
14692,kenmoore
14686,yifan-gu
14663,vishh
14648,alfred-huangjian
14650,linzichang
14643,liguangbo
14637,alfred-huangjian
14634,shenshouer
14623,linzichang
14613,jijun2
14612,jijun2
14609,combk8s
14611,mcluseau
14604,pyk
14599,feiskyer
14556,jimmidyson
14551,combk8s
14548,zhengguoyong
14543,ravigadde
14547,jijun2
14536,wulonghui
14522,lavalamp
14514,cjellick
14503,chrisleck
14493,BugRoger
14490,lhuard1A
14487,zhengguoyong
14485,kevin-wangzefeng
14481,jijun2
14479,linzichang
14473,linzichang
14465,zhengguoyong
14459,bprashanth
14439,jonboulle
14432,s-urbaniak
14430,kshelton
14431,kshelton
14427,sttts
14423,thucatebay
14419,BugRoger
14412,zhengguoyong
14410,lhuard1A
14401,linzichang
14387,robszumski
14405,resouer
14351,zhengguoyong
14347,jimmidyson
14345,zhengguoyong
14334,zhengguoyong
14330,zhengguoyong
14328,agonzalezro
14325,mikedanese
14296,technosophos
14290,sdodson
14271,s-urbaniak
14258,zhengguoyong
14256,linzichang
14254,WIZARD-CXY
14255,tpounds
14253,zhengguoyong
14251,zhengguoyong
14250,zhengguoyong
14248,tpounds
14245,tpounds
14242,simonswine
14235,epixa
14222,linzichang
14219,hw-qiaolei
14183,alfred-huangjian
14185,tmrts
14176,tmrts
14177,hw-qiaolei
14173,runningwild
14175,alfred-huangjian
14168,tmrts
14174,tmrts
14166,alfred-huangjian
14164,zhengguoyong
14160,zhengguoyong
14158,linzichang
14155,mattjmcnaughton
14165,feiskyer
14123,alfred-huangjian
14119,kevin-wangzefeng
14115,ejemba
14109,BugRoger
14094,resouer
14077,nikhiljindal
14066,oleg2oleg
14063,deads2k
14058,kelcecil
14056,yifan-gu
14046,soltysh
14038,hw-qiaolei
14033,gosharplite
14025,zhengguoyong
14035,feiskyer
14005,technosophos
14004,mbruzek
14010,pedro-r-marques
14015,hw-qiaolei
13971,s-urbaniak
13968,kevin-wangzefeng
13967,tmrts
13965,s-urbaniak
13963,zhengguoyong
13959,zhengguoyong
13964,liguangbo
13953,liguangbo
13952,zhengguoyong
13950,tpounds
13947,alfred-huangjian
13948,oleg2oleg
13942,pedro-r-marques
13937,luke-mino-altherr
13915,tmrts
13912,zhengguoyong
13916,tmrts
13911,feiskyer
66793,freehan
66730,dekkagaijin
13907,samsabed
13906,zhengguoyong
13901,resouer
13897,darron
13905,zhengguoyong
13895,jhadvig
13894,mattmoor
13889,zhengguoyong
13888,hw-qiaolei
13898,hw-qiaolei
13882,mcluseau
13864,feiskyer
13861,samsabed
13853,jhadvig
13849,zhengguoyong
13844,tummychow
13840,chakri-nelluri
13834,derekwaynecarr
13819,rombie
13816,luke-mino-altherr
13807,bodgit
13815,robertabbott
13790,kevin-wangzefeng
13784,BugRoger
13779,aaronlevy
13777,lavalamp
13765,brendandburns
13762,runningwild
13759,stevesloka
13757,mbruzek
13754,tummychow
13750,jimmycuadra
13747,mattmoor
13730,discordianfish
13729,CaptTofu
13728,mfojtik
13715,hw-qiaolei
13717,hw-qiaolei
13711,jijun2
13706,hw-qiaolei
13697,ArtfulCoder
13692,Symmetric
13675,derekwaynecarr
13674,hw-qiaolei
13682,ryfow
13668,hw-qiaolei
13667,mkulke
13666,yuvipanda
13662,alfred-huangjian
13659,linzichang
13658,BugRoger
13655,hw-qiaolei
13652,clasohm
13646,hw-qiaolei
13651,clasohm
13635,resouer
13632,jiangyaoguo
13634,resouer
13628,mcluseau
13624,hw-qiaolei
13623,resouer
13622,feiskyer
13638,linzichang
13616,evanphx
13618,hw-qiaolei
13612,huang195
13611,huang195
13580,ravigadde
13568,marun
13561,yuvipanda
13559,hw-qiaolei
13544,linzichang
13537,stevekuznetsov
13524,pwittrock
13516,samsabed
13512,freedev
13510,hw-qiaolei
13504,hw-qiaolei
13491,dalanlan
13477,caseydavenport
13474,ivant
13496,hw-qiaolei
13468,yifan-gu
13467,simonswine
13456,jjainschigg-r
13455,yifan-gu
13454,jimmidyson
13442,liebowitz
13437,alexwlchan
13423,roackb2
13433,javapapo
13417,jfoy
13393,aronchick
13384,resouer
13373,hw-qiaolei
13376,gouyang
13377,dasch
13371,wb14123
13369,resouer
13368,AnanyaKumar
13365,uruddarraju
13356,shaunparker
13351,hw-qiaolei
13340,rimey
13334,pedro-r-marques
13352,hw-qiaolei
13307,brosner
13304,alexwlchan
13312,kelcecil
13301,hw-qiaolei
13298,hw-qiaolei
13289,mattnenterprise
13285,uruddarraju
13290,hw-qiaolei
13268,cameronbrunner
13263,jcderr
13255,dalanlan
13253,hw-qiaolei
13252,hw-qiaolei
13238,kelcecil
13222,kalbasit
13216,karlkfi
13207,xavierbaude
13205,JorgenG
13202,jimmidyson
13194,jimmidyson
13192,jiangyaoguo
13191,jimmidyson
13185,xsamurai
13180,samsabed
13175,ngbinh
13172,parikhyash
13165,Symmetric
13169,enisoc
13151,pires
13143,xavierbaude
13141,epc
13126,epc
13124,linzichang
13115,yifan-gu
13109,copejon
13095,kelcecil
13088,huangyuqi
13087,dalanlan
13079,feiskyer
13078,hw-qiaolei
13071,caogj
13076,caogj
13075,huangyuqi
13067,bfallik
13063,erulabs
13072,mikaelh
13061,yifan-gu
13058,mvdan
13042,yifan-gu
13041,yifan-gu
13031,daizuozhuo
13025,pires
13010,wulonghui
13000,brendandburns
12985,mbabker
12988,andyzheng0831
12982,stuart-warren
12980,wb14123
12953,thesandlord
12938,yifan-gu
12934,alexhersh
12933,andyzheng0831
12939,sgallagher
12924,rubenv
12920,jiangyaoguo
12940,Miciah
12915,kevin-wangzefeng
12910,soltysh
12906,errordeveloper
12895,lvlv
12887,ozdanborne
12890,alexhersh
12880,yifan-gu
12873,quinton-hoole
12872,runningwild
12858,MatMaul
12871,ckleban
12857,jimmidyson
12860,nak3
12841,wb14123
12839,difro
12834,brosner
12832,yifan-gu
12824,andyzheng0831
12808,runningwild
12802,yujuhong
12821,andyzheng0831
12795,soltysh
12791,lleszczu
12807,paralin
12779,alfred-huangjian
12766,gregjhogan
12708,hw-qiaolei
12717,tamnd
12710,huangyuqi
12704,huangyuqi
12702,liguangbo
12700,bjlee72
12699,xiejunan
12694,yifan-gu
12683,feelobot
12684,mbruzek
12671,mikeln
12656,vallard
12651,sttts
12648,samsabed
12646,kevin-wangzefeng
12635,hurf
12633,liguangbo
12631,asdfsx
12628,huangyuqi
12622,janetkuo
12616,sttts
12608,pstengel
12605,DirectXMan12
12601,jlebon
12599,rootfs
12593,apeeyush
12590,thesandlord
12589,slaws
12543,andyzheng0831
12539,jiangyaoguo
12536,sttts
12535,sttts
12530,gmarek
12516,jiangyaoguo
12502,gambol99
12490,olivierlemasle
12491,yifan-gu
12489,yifan-gu
12486,devurandom
12484,tmrts
12482,tmrts
12477,wojtek-t
12475,ae6rt
12470,simon3z
12466,xiejunan
12464,jiangyaoguo
12471,peter-edge
12461,hurf
12469,xiejunan
12460,alfred-huangjian
12453,epc
12440,BenTheElder
12441,vlajos
12438,derekparker
12443,PhilibertDugas
12436,runningwild
12434,dalanlan
12425,BenTheElder
12456,bjlee72
12416,BenTheElder
12414,krousey
12410,sttts
12407,discoposse
12401,alfred-huangjian
12403,stensonb
12396,danwinship
12394,hw-qiaolei
12393,jsafrane
12387,resouer
12388,feihujiang
12385,benmccann
12384,Hokutosei
12374,wulonghui
12368,stensonb
12363,jmccarty3
12362,mbruzek
12360,jeffbean
12350,jeffmendoza
12354,mjibson
66684,deads2k
66581,janetkuo
12346,mariomarin
12335,wulonghui
12334,bjlee72
12332,hurf
12331,hurf
12336,devurandom
12317,crawford
12295,feelobot
12292,brendandburns
12286,peter-edge
12275,peter-edge
12288,jpgxs
12270,jacobtomlinson
12267,TheMeier
12264,kevin-wangzefeng
12262,jpgxs
12260,bjlee72
12257,socaa
12228,uluyol
12227,freeformz
12225,feelobot
12221,mfojtik
12215,runningwild
12209,deads2k
12213,caseydavenport
12203,jpgxs
12202,daizuozhuo
12199,sttts
12198,sttts
12189,feihujiang
12176,KyleAMathews
12170,nickethier
12163,runningwild
12146,deads2k
12133,hw-qiaolei
12129,eddiesimeon
12130,sttts
12127,ae6rt
12117,davidwalter0
12116,ghost
12115,eddiesimeon
12128,dalanlan
12110,arun-gupta
12105,derekwaynecarr
12097,Snesha
12096,sttts
12086,bdevloed
12077,alfred-huangjian
12076,socaa
12067,moander
12075,alfred-huangjian
12052,BenTheElder
12046,asridharan
12036,timothysc
12029,iterion
12023,resouer
12017,bnprss
12016,hurf
12011,dalanlan
11991,davidwalter0
11995,ptescher
11980,soltysh
11973,hurf
11972,jacobtomlinson
11969,moander
11970,dalanlan
11952,miguel250
11955,pedro-r-marques
11951,mvdan
11946,mamikonyana
11944,mamikonyana
11942,ironcladlou
11938,justinsb
11931,stensonb
11929,swarren83
11928,sttts
11922,sttts
11919,samsabed
11921,HaiyangDING
11906,eghobo
11904,eghobo
11892,wingedkiwi
11868,nak3
11859,jiangyaoguo
11863,danieldreier
11860,ingvagabund
11864,danieldreier
11837,jeffbean
11812,jhadvig
11810,bnprss
11804,sgotti
11801,AnanyaKumar
11798,uruddarraju
11800,rafax
11802,jiangyaoguo
11788,HaiyangDING
11773,jayunit100
11753,mbabker
11768,mr-salty
11746,soltysh
11739,jiangyaoguo
11741,jsafrane
11738,daizuozhuo
11727,dalanlan
11715,wattsteve
11712,dgonyeo
11713,AnanyaKumar
11714,colmm99
11706,ptescher
11693,3cky
11683,nak3
11682,nak3
11680,dalanlan
11673,zg
11659,gosharplite
11657,SamuelMarks
11664,ingvagabund
11648,jumpkick
11630,mgannholm
11623,mgannholm
11621,mgannholm
11616,mgannholm
11608,mgannholm
11599,DirectXMan12
11580,ingvagabund
11575,jiangyaoguo
11573,Raffo
11572,jiangyaoguo
11559,PhilibertDugas
11562,mcluseau
11558,PhilibertDugas
11553,pkern
11552,jiangyaoguo
11541,lazypower
11469,fredjean
11459,erulabs
11450,errordeveloper
11437,hurf
11439,jfchevrette
11422,vsimon
11390,jfchevrette
11379,lhuard1A
11376,jiangyaoguo
11378,jayunit100
11368,hurf
11364,arjanschaaf
11358,WIZARD-CXY
11339,bprashanth
11337,jayunit100
11306,tsenart
11298,sttts
11295,praveenkumar
11284,gouyang
11224,sttts
11230,sttts
11200,arun-gupta
11183,brendandburns
11169,vsimon
11156,sttts
11149,epc
11132,resouer
11131,bfallik
11129,epc
11127,nak3
11121,jason-riddle
11120,jason-riddle
11118,iakshay
11125,nak3
11109,resouer
11108,sttts
11107,pires
11104,gabrielweyer
11100,gabrielweyer
11064,derekwaynecarr
11054,jsafrane
11051,nak3
11047,gurvindersingh
11041,ozdanborne
11037,air
11003,jayunit100
10986,wojtek-t
10988,robamaton
10957,yifan-gu
10936,jiangyaoguo
10930,bcbroussard
10924,kelcecil
10914,HaiyangDING
10881,uluyol
10876,jameskyle
10843,jiangyaoguo
10837,ncdc
10835,sttts
10830,jimmidyson
10829,WIZARD-CXY
10821,jimmidyson
10806,hurf
66480,Huang-Wei
10772,satnam6502
10784,timstclair
10753,samsabed
10746,sttts
10743,hurf
10741,jyrip
10742,hurf
10747,sttts
10736,AnanyaKumar
10733,sttts
10706,jayunit100
10708,soltysh
10704,leeplay
10701,feihujiang
10695,jeffmendoza
10685,jeffbean
10673,stefwalter
10678,stefwalter
10660,stefwalter
10650,jeffmendoza
10649,karlkfi
10641,jeffmendoza
10639,caseydavenport
10640,marun
10637,marun
10625,bcbroussard
10615,sttts
10613,sttts
10608,stefwalter
10602,marun
10600,gosharplite
10598,feihujiang
10594,mikedanese
10595,karlkfi
10601,marun
10584,alexmavr
10582,uluyol
10579,uluyol
10578,RichieEscarez
10575,chiefy
10569,yifan-gu
10563,rootfs
10552,shauns
10554,brandonsdavis
10541,ingvagabund
10536,ingvagabund
10532,feihujiang
10517,chrishiestand
10512,F21
10510,mikedanese
10504,bcbroussard
10503,manansaraf
10488,justinsb
10487,satnam6502
10490,jackgr
10476,jsafrane
10474,kargakis
10469,F21
10460,shlomizadok
10464,jiangyaoguo
10449,feihujiang
10444,ae6rt
10447,feihujiang
10440,pravisankar
10442,aaronlevy
10426,csrwng
10416,swagiaal
10422,bcbroussard
10414,swagiaal
10395,sttts
10392,ae6rt
10393,WIZARD-CXY
10394,sttts
10390,sttts
10378,jeffbean
10355,multilinear
10286,mwielgus
10316,erictune
10279,marekbiskup
10267,satnam6502
10253,yifan-gu
10252,akramer
10240,janetkuo
10228,sdminonne
10219,sttts
10215,dalanlan
10211,dchen1107
10221,feihujiang
10208,amygdala
10207,ericelliott
10199,jlowdermilk
10197,karlkfi
10188,fabianofranz
10185,sttts
10181,swagiaal
10180,mwielgus
10176,jsafrane
10174,ghost974
10170,sandoracs
10165,imesh
10154,viirya
10129,perljedi
10095,swagiaal
10089,nebelpfade
10093,jsafrane
10077,timstclair
10073,rajatchopra
10072,jdef
10062,ironcladlou
10059,ironcladlou
10052,derekwaynecarr
10053,timstclair
10049,karlkfi
10048,rajatchopra
10028,andronat
10025,perljedi
10019,feihujiang
10011,tnguyen-rh
10008,hurf
10005,WIZARD-CXY
10007,feihujiang
9989,kazhang
9965,stevekuznetsov
9957,rootfs
9949,iterion
9943,mamikonyana
9938,stevekuznetsov
9913,iterion
9904,jayunit100
9890,ncdc
9876,andronat
9868,mhenniges
9862,fgrzadkowski
9841,smarterclayton
9853,michaeltchapman
9838,JasonGiedymin
9831,jayunit100
9827,timstclair
9806,manansaraf
9796,sttts
9791,hurf
9789,sttts
9799,jhadvig
9787,feihujiang
9786,WIZARD-CXY
9782,andronat
9785,jdef
9772,feihujiang
9775,jdef
9781,andronat
9768,timstclair
9767,jdef
9752,karlkfi
9741,jdef
9735,iterion
9737,iterion
9722,mikedanese
9723,swagiaal
9736,sdminonne
9710,jdef
9708,bronislav
9707,feihujiang
9705,hurf
9706,hurf
9703,jayunit100
9697,pnovotnak
9700,BenTheElder
9691,lazypower
9683,BenTheElder
9679,BenTheElder
9668,mbruzek
9664,stefwalter
9667,jdef
9663,swagiaal
9660,vsopvsop
9659,njuicsgz
9655,sdminonne
9652,epc
9650,hurf
9665,swagiaal
9646,rajatchopra
9629,jeffmendoza
9616,jeffbean
9612,ramr
9594,manansaraf
9590,manansaraf
9591,manansaraf
9586,caesarxuchao
9582,mnagy
9579,doublerr
9575,rassie
9572,EricMountain-1A
9569,jhadvig
9567,gongysh2004
9563,BenTheElder
9560,ravigadde
9564,hurf
9550,feihujiang
9562,hurf
9527,Rob4001
9503,JeffPaine
9500,andronat
9499,doublerr
9490,andronat
9479,jayunit100
9466,syst3mw0rm
9471,jayunit100
9477,rassie
9476,stevekuznetsov
9452,yifan-gu
9436,timstclair
9438,jackgr
9425,tsenart
9424,jdef
9419,roberthbailey
9408,bcbroussard
9406,yifan-gu
9423,jdef
9396,yllierop
9393,swagiaal
9387,jsdir
9379,rimusz
9376,feihujiang
9351,jayunit100
9346,yifan-gu
9335,swagiaal
9330,jackgr
9334,swagiaal
9318,priezz
9321,deads2k
9319,skonzem
9315,jdef
9314,ingvagabund
9309,saad-ali
9305,brendandburns
9304,jsdir
9303,doublerr
9296,daizuozhuo
9281,pedro-r-marques
9285,yllierop
9265,tsenart
9279,yifan-gu
9257,jeffmendoza
9252,joerg84
9245,bcbroussard
9249,bcbroussard
9238,brendandburns
9240,tpounds
9234,dalanlan
9222,JasonGiedymin
9216,mulloymorrow
9213,jeffbean
9210,BenTheElder
9209,uluyol
9203,mulloymorrow
9200,rhcarvalho
9187,jimmidyson
9182,jdef
9177,feihujiang
9168,jayunit100
9171,jdef
9160,uluyol
9159,csrwng
9157,iterion
9156,erictune
66324,krunaljain
66213,yastij
66203,tanshanshan
66193,tianshapjq
9130,andronat
9112,kargakis
9109,gijzelaerr
9111,combor
9140,pires
9108,resouer
9105,anguslees
9098,benmccann
9099,derekwaynecarr
9095,jeffbean
9102,WIZARD-CXY
9086,jeffmendoza
9077,joerg84
9082,tnguyen-rh
9061,stevesloka
9060,errordeveloper
9056,runningwild
9055,jsafrane
9052,jayunit100
9048,kazegusuri
9050,lvlv
9047,kazegusuri
9038,HaiyangDING
9033,derekchiang
9032,andronat
9035,derekchiang
9009,liggitt
9007,jeffmendoza
9004,bakins
9003,bakins
8999,kargakis
9000,jackgr
8997,jsafrane
8996,manolitto
8994,AntonioMeireles
8984,swarren83
8986,resouer
8968,yifan-gu
8958,mbruzek
8947,bcbroussard
8939,bcbroussard
8951,yifan-gu
8925,andronat
8920,whitmo
8924,erickhan
8913,sroze
8914,JasonGiedymin
8895,jeffmendoza
8893,jeffmendoza
8890,abhgupta
8897,pweil-
8886,csrwng
8882,jdef
8880,deads2k
8877,mikedanese
8866,liggitt
8864,ncdc
8857,andronat
8858,daizuozhuo
8863,mfojtik
8855,jackgr
8854,jackgr
8839,yifan-gu
8832,jeffmendoza
8822,bprashanth
8815,bhaggerty
8812,jayunit100
8809,rrati
8804,kargakis
8810,combor
8793,jayunit100
8787,BenTheElder
8785,aveshagarwal
8782,orangain
8778,kargakis
8776,jackgr
8764,eparis
8757,caogj
8751,jimmidyson
8752,WIZARD-CXY
8719,kamalmarhubi
8716,jackgr
8680,csrwng
8677,jayunit100
8678,jayunit100
8671,kargakis
8670,jbdalido
8665,markturansky
8664,idoshamun
8688,markturansky
8662,kbeecher
8659,bcbroussard
8653,matschaffer
8646,andronat
8647,yifan-gu
8644,mbforbes
8643,vishh
8641,smarterclayton
8640,roberthbailey
8639,bcbroussard
8633,thockin
8632,jimmidyson
8629,jlowdermilk
8627,caesarxuchao
8628,jlowdermilk
8621,MCyprien
8618,kargakis
8634,csrwng
8616,bcbroussard
8615,bcbroussard
8614,bcbroussard
8611,bcbroussard
8612,bcbroussard
8607,liggitt
8604,brendandburns
8624,lazypower
8600,bcbroussard
8596,andronat
8594,nikhiljindal
8587,antoineco
8592,RichieEscarez
8586,vmarmol
8582,deads2k
8579,roberthbailey
8574,bprashanth
8570,justinsb
8563,justinsb
8561,simon3z
8558,WIZARD-CXY
8556,kargakis
8536,jayunit100
8530,swagiaal
8455,kenmoore
8366,justinsb
8332,yllierop
8324,vmarmol
8301,danielschonfeld
8255,iterion
8246,rrati
8233,csrwng
8157,hurf
8149,pmorie
8145,jayunit100
8026,andronat
8009,mbforbes
7938,mbforbes
7761,manolitto
7759,manolitto
7668,bprashanth
7653,ixdy
7617,pronix
7602,zmerlynn
7591,derekwaynecarr
66106,cofyc
7486,feihujiang
7468,simon3z
7467,brendandburns
7443,vishh
7421,brendandburns
7372,kbeecher
7245,Symmetric
7240,satnam6502
7183,ironcladlou
7136,a-robinson
7107,wojtek-t
7074,idoshamun
7003,derekwaynecarr
6995,rrati
6973,AntonioMeireles
6886,aveshagarwal
6857,wojtek-t
6793,yllierop
6773,markturansky
6684,justinsb
6689,spothanis
6680,deads2k
6649,rootfs
6635,timothysc
6611,bussyjd
6573,kargakis
6566,jsafrane
6561,piosz
6520,markturansky
6478,AntonioMeireles
6477,tmrts
6470,yifan-gu
6438,alml
6403,zmerlynn
6393,alex-mohr
6391,bgrant0607
6386,nhorman
6350,jsafrane
6281,gosharplite
6245,tmrts
6234,swagiaal
6174,rootfs
6074,derekwaynecarr
6048,nikhiljindal
6050,piosz
71573,JacobTanenbaum
71471,mshaverdo
66007,w-leads
65970,loburm
5985,lyda
5986,jayunit100
5980,ConnorDoyle
5929,rjnagal
5839,dennybritz
5842,simon3z
5834,yllierop
5808,mikeln
5776,jonlangemak
5725,rrati
5700,shai-weinstein
5709,gmarek
5635,ravigadde
5559,satnam6502
5501,jszczepkowski
5492,pweil-
5432,gmarek
5438,timothysc
5401,yujuhong
5381,justinsb
5284,piosz
5246,tkulczynski
5225,justinsb
5142,derekwaynecarr
5139,ddysher
5101,justinsb
5093,sdminonne
4921,mikedanese
4885,brendandburns
4835,sdminonne
4780,jdef
4667,kbeecher
4660,deads2k
4597,whitmo
4552,satnam6502
4491,coolsvap
4473,xiang90
4483,errordeveloper
65821,lbernail
65781,zetaab
65779,cblecker
65748,mborsz
4436,EricMountain-1A
4145,zmerlynn
4011,eparis
3940,jlowdermilk
3855,filbranden
3812,ddysher
3810,ironcladlou
3768,deads2k
3759,deads2k
3719,sub-mod
3701,thockin
3647,deads2k
3472,derekwaynecarr
3435,nhorman
3434,pires
3227,satnam6502
3099,proppy
3096,brendandburns
3071,rlarocque2
3057,derekwaynecarr
2994,brendandburns
2893,brendandburns
2825,mikedanese
2815,jdef
65690,hzxuzhonghu
65649,rsc
65640,MikeSpreitzer
65638,gnufied
65642,MrHohn
65572,yue9944882
2781,commonlisp
2672,justinsb
2654,justinsb
2649,silasdavis
2606,derekwaynecarr
2517,brendandburns
2520,mikedanese
2501,derekwaynecarr
2387,erictune
2343,erictune
2282,bgrant0607
2277,lavalamp
2233,justinsb
2059,smarterclayton
1941,derekwaynecarr
1893,x1ddos
1831,eparis
1648,deads2k
1652,eparis
1456,satnam6502
1411,sebgoa
1400,abhgupta
1325,ghodss
1321,abursavich
1269,satnam6502
65564,dims
65549,gnufied
65504,dashpole
65499,krunaljain
65454,bsalamat
65434,yue9944882
1230,Ch00k
1202,lavalamp
1215,rajatchopra
1112,filbranden
978,rajatchopra
881,smarterclayton
860,smarterclayton
855,ironcladlou
848,kelseyhightower
745,smarterclayton
714,filbranden
692,lavalamp
550,derekwaynecarr
543,rafael
527,Sarsate
496,ryfow
493,lavalamp
378,monnand
369,jdef
356,smarterclayton
167,discordianfish
65254,Random-Liu
65186,vantuvt
65157,caesarxuchao
65124,wilhelmguo
65105,apelisse
65073,davidz627
65061,immutableT
65054,chenchun
64986,ashleyschuett
64930,lblackstone
64903,WanLinghao
64850,carldanley
64813,cblecker
64766,nikhita
64723,vladimirvivien
64477,chuckha
64473,nberlee
64427,andyzhangx
64419,wgliang
64404,soltysh
64378,wrdls
64372,monotek
64364,ravisantoshgudimetla
64253,nikhita
64186,hzxuzhonghu
64153,liggitt
64140,dixudx
64099,danuk1982
64024,loburm
63996,grosskur
63892,n3wscott
63824,dougm
63820,chrisohaver
63757,nak3
63618,tallclair
63573,serathius
63528,silveryfu
63469,wojtek-t
63429,cofyc
63414,roycaihw
63412,praseodym
63385,CaoShuFeng
63367,juanvallejo
63338,humblec
63332,zhouhaibing089
63233,lichuqiang
63229,vikaschoudhary16
63176,bswartz
63170,micahhausler
63161,filbranden
63151,YonatanKiron
63068,xmudrii
63047,abrarshivani
63037,msau42
63039,alvaroaleman
71298,stewart-yu
62938,pospispa
62923,abrarshivani
62910,jklare
62862,zetaab
62813,ostromart
62774,Raffo
62756,wangzhen127
62718,Lion-Wei
62692,mikedanese
62544,astefanutti
62513,gyliu513
62472,sttts
62460,mlmhl
62455,fabriziopandini
62423,nckturner
62385,hypnoglow
62375,feiskyer
62322,wojtek-t
62309,mlmhl
62184,vikaschoudhary16
62174,supriyagarg
62146,frodenas
62102,cofyc
62105,simonswine
62082,Random-Liu
62018,andyzhangx
62015,feiskyer
61963,roycaihw
61877,mikedanese
61802,danlenar
61797,satyasm
61713,mountkin
61642,sch00lb0y
61610,rajansandeep
61584,AkihiroSuda
61537,kawych
61436,sbezverk
61417,aleksandra-malinowska
61227,apelisse
61130,Liujingfang1
60986,venkatsc
60962,technicianted
60792,php-coder
60682,hanxiaoshuai
60627,dims
60486,zhangxiaoyu-zidif
60445,jhorwit2
60401,andyzhangx
60386,k82cn
60244,ihmccreery
60226,php-coder
60194,lcfang
60173,jpbetz
60171,jhorwit2
60113,mbohlool
60050,obnoxxx
60021,nikhita
60009,zetaab
59970,anubhakushwaha
59966,liggitt
59963,vikaschoudhary16
59938,rramkumar1
59930,zetaab
59932,divyenpatel
59877,dims
59868,dims
59849,yue9944882
59843,bsalamat
59830,khenidak
70954,qingling128
59796,aakp10
59732,dims
59727,wgliang
59720,islinwb
59718,hanxiaoshuai
59609,zhangxiaoyu-zidif
59602,abrarshivani
59576,oilbeater
59548,linyouchong
59529,wackxu
59512,roboll
59502,zioproto
59492,dims
59463,dixudx
59436,nicksardo
59371,andrewrynhard
59323,zetaab
59201,wojtek-t
59134,caesarxuchao
59034,wenlxie
58916,ianchakeres
58906,linyouchong
58851,chenchun
58828,rajansandeep
58809,wackxu
58810,mlmhl
58807,CaoShuFeng
58769,pmichali
58651,yguo0905
58564,mikedanese
58534,dougm
58520,porridge
58476,rphillips
58458,joelsmith
58438,carlory
70789,seunghunee
70735,wojtek-t
58282,vikaschoudhary16
58172,RenaudWasTaken
58143,CaoShuFeng
58141,ahmetb
58074,jsravn
58052,m1093782566
58044,rramkumar1
58038,wackxu
57872,mlmhl
57883,hzxuzhonghu
57802,dashpole
57713,rchakra3
57657,kkmsft
57648,Fsero
57613,mtaufen
57569,micahhausler
57545,farmer-hutao
57340,jmcmeek
57302,lichuqiang
57286,rjog
57238,wojtek-t
57228,hzxuzhonghu
57226,anubhakushwaha
57168,yastij
57097,jackytu
57036,lcfang
57034,ingvagabund
57016,ianchakeres
56995,mtaufen
56959,lichuqiang
56952,Lion-Wei
56942,zacharysarah
56880,MrHohn
56812,dims
56801,juanvallejo
56785,MaciekPytel
56729,dnardo
56719,mengqiy
56702,soltysh
56690,redbaron
56705,loburm
56661,xiangpengzhao
56643,dashpole
